GENE_ENTREZ_ID	GENE_SYMBOL	DISEASE_IDS
8086	AAAS	"ORPHA:869,OMIM:231550"
16	AARS	"OMIM:613287,OMIM:616339,ORPHA:442835"
10157	AASS	"OMIM:268700,OMIM:238700"
24	ABCA4	"OMIM:248200,OMIM:153800,ORPHA:827,OMIM:601718,OMIM:604116,ORPHA:1872,ORPHA:791"
10347	ABCA7	"ORPHA:1020,OMIM:608907"
6833	ABCC8	"OMIM:256450,ORPHA:99885,ORPHA:79134,OMIM:606176,ORPHA:99886,ORPHA:276575,OMIM:610374,OMIM:125853,OMIM:240800"
10060	ABCC9	"OMIM:239850,ORPHA:965,ORPHA:1517,ORPHA:966,OMIM:614050,ORPHA:154,OMIM:608569"
51099	ABHD5	"ORPHA:98907,OMIM:275630"
38	ACAT1	OMIM:203750
65057	ACD	"ORPHA:3322,OMIM:616553,ORPHA:618"
55331	ACER3	OMIM:617762
50	ACO2	"OMIM:616289,OMIM:614559"
51	ACOX1	"OMIM:264470,ORPHA:2971"
8309	ACOX2	OMIM:617308
54	ACP5	"OMIM:607944,ORPHA:1855"
2182	ACSL4	"ORPHA:777,ORPHA:86818,OMIM:300387"
58	ACTA1	"ORPHA:171439,ORPHA:171436,ORPHA:171433,ORPHA:97240,ORPHA:171430,ORPHA:97244,OMIM:616852,OMIM:255310,ORPHA:2020,OMIM:161800"
59	ACTA2	"OMIM:611788,OMIM:613834,ORPHA:2573,ORPHA:91387,OMIM:614042"
60	ACTB	"OMIM:243310,ORPHA:2995,ORPHA:64755,ORPHA:79107,OMIM:607371"
71	ACTG1	"ORPHA:2995,OMIM:614583,OMIM:604717"
90	ACVR1	"ORPHA:337,OMIM:135100"
53616	ADAM22	OMIM:617933
81794	ADAMTS10	"OMIM:277600,ORPHA:3449"
9508	ADAMTS3	"OMIM:618154,ORPHA:2136"
103	ADAR	"ORPHA:51,OMIM:615010,ORPHA:41,ORPHA:225154,OMIM:127400"
113179	ADAT3	OMIM:615286
111	ADCY5	"ORPHA:1429,ORPHA:324588,OMIM:606703"
9289	ADGRG1	"OMIM:615752,OMIM:606854"
23394	ADNP	OMIM:615873
151	ADRA2B	"ORPHA:86814,OMIM:607876"
158	ADSL	"ORPHA:46,OMIM:103050"
2334	AFF2	OMIM:309548
27125	AFF4	OMIM:616368
10939	AFG3L2	"OMIM:614487,OMIM:610246,ORPHA:313772,ORPHA:101109"
175	AGA	"ORPHA:93,OMIM:208400"
60509	AGBL5	"OMIM:617023,ORPHA:791"
178	AGL	"ORPHA:366,OMIM:232400"
10555	AGPAT2	"ORPHA:528,OMIM:608594"
375790	AGRN	"ORPHA:98914,OMIM:615120,ORPHA:98913"
191	AHCY	"OMIM:613752,ORPHA:88618"
27245	AHDC1	OMIM:615829
54806	AHI1	"OMIM:608629,ORPHA:475,ORPHA:220493,ORPHA:791"
196	AHR	ORPHA:791
197	AHSG	"ORPHA:2850,OMIM:203650"
9131	AIFM1	"ORPHA:238329,ORPHA:101078,OMIM:300614,OMIM:310490,OMIM:300816"
7965	AIMP2	OMIM:618006
23746	AIPL1	"OMIM:604393,OMIM:268000,ORPHA:65,ORPHA:1872"
207	AKT1	"ORPHA:201,OMIM:167000,ORPHA:744,OMIM:615109,OMIM:181500,OMIM:114480,OMIM:114500,OMIM:176920"
10000	AKT3	"OMIM:615937,ORPHA:83473"
5832	ALDH18A1	"OMIM:616586,ORPHA:447753,ORPHA:447757,OMIM:219150,ORPHA:90348,OMIM:601162,ORPHA:447760,ORPHA:35664,OMIM:616603"
224	ALDH3A2	"OMIM:270200,ORPHA:816"
8659	ALDH4A1	OMIM:239510
7915	ALDH5A1	"OMIM:271980,ORPHA:22"
501	ALDH7A1	"OMIM:266100,ORPHA:3006"
226	ALDOA	OMIM:611881
229	ALDOB	OMIM:229600
79868	ALG13	"OMIM:300884,ORPHA:777,ORPHA:324422"
85365	ALG2	"OMIM:616228,ORPHA:79326,OMIM:607906,ORPHA:353327"
79796	ALG9	"OMIM:263210,OMIM:608776,ORPHA:79328"
7840	ALMS1	"ORPHA:64,OMIM:203800"
242	ALOX12B	"ORPHA:313,ORPHA:79394,OMIM:242100,ORPHA:281122"
59344	ALOXE3	"OMIM:606545,ORPHA:313,ORPHA:79394,OMIM:242100,ORPHA:281122"
8092	ALX1	"OMIM:613456,ORPHA:306542"
257	ALX3	"OMIM:136760,ORPHA:391474"
60529	ALX4	"ORPHA:35093,OMIM:609597,OMIM:615529,OMIM:613451,ORPHA:52022,ORPHA:228390"
139285	AMER1	"OMIM:300373,ORPHA:2780"
9949	AMMECR1	"OMIM:300990,ORPHA:86818"
275	AMT	OMIM:605899
286	ANK1	"ORPHA:251066,OMIM:182900"
288	ANK3	OMIM:615493
23141	ANKLE2	"ORPHA:2512,OMIM:616681"
29123	ANKRD11	"ORPHA:261250,OMIM:148050,ORPHA:2332"
55129	ANO10	"OMIM:613728,ORPHA:284289"
84168	ANTXR1	"OMIM:230740,ORPHA:2067,OMIM:602089"
118429	ANTXR2	"ORPHA:2176,ORPHA:2028,OMIM:228600"
1174	AP1S1	"OMIM:609313,ORPHA:171851"
8905	AP1S2	"ORPHA:85329,OMIM:304340,ORPHA:85335,ORPHA:1568"
8546	AP3B1	OMIM:608233
8120	AP3B2	"ORPHA:442835,OMIM:617276"
10717	AP4B1	"ORPHA:280763,OMIM:614066"
23431	AP4E1	"OMIM:184450,OMIM:613744,ORPHA:280763"
9179	AP4M1	"ORPHA:280763,OMIM:612936"
11154	AP4S1	"OMIM:614067,ORPHA:280763"
9907	AP5Z1	"OMIM:613647,ORPHA:306511"
324	APC	"OMIM:613659,ORPHA:79665,ORPHA:261584,ORPHA:247806,OMIM:175100,OMIM:135290,ORPHA:873,ORPHA:3258,OMIM:114550,OMIM:114500"
10297	APC2	"OMIM:617169,ORPHA:821"
351	APP	"ORPHA:324703,OMIM:104300,ORPHA:100006,ORPHA:324708,OMIM:605714,ORPHA:1020,ORPHA:324713,ORPHA:324723"
359	AQP2	"OMIM:125800,ORPHA:223"
372	ARCN1	OMIM:617164
10564	ARFGEF2	OMIM:608097
383	ARG1	"ORPHA:90,OMIM:207800"
57514	ARHGAP31	"ORPHA:974,OMIM:100300"
396	ARHGDIA	OMIM:615244
23370	ARHGEF18	"OMIM:617433,ORPHA:791"
9181	ARHGEF2	OMIM:617523
23229	ARHGEF9	OMIM:300607
8289	ARID1A	"ORPHA:1465,OMIM:614607"
57492	ARID1B	"ORPHA:1465,ORPHA:251056,OMIM:135900"
196528	ARID2	"OMIM:617808,ORPHA:1465"
200894	ARL13B	"ORPHA:475,OMIM:612291"
23568	ARL2BP	"OMIM:615434,ORPHA:791"
403	ARL3	"OMIM:618161,ORPHA:475,OMIM:618173,ORPHA:791"
84100	ARL6	"OMIM:268000,OMIM:600151,ORPHA:110,OMIM:613575,ORPHA:791"
80210	ARMC9	"ORPHA:475,OMIM:617622"
9915	ARNT2	"OMIM:615926,ORPHA:3157"
410	ARSA	"ORPHA:309263,ORPHA:309271,OMIM:250100,ORPHA:309256"
411	ARSB	OMIM:253200
64801	ARV1	"ORPHA:442835,OMIM:617020"
170302	ARX	"ORPHA:452,ORPHA:3175,OMIM:300004,OMIM:309510,OMIM:308350,ORPHA:2508,OMIM:300215,ORPHA:777,ORPHA:3451,OMIM:300419"
427	ASAH1	"OMIM:228000,OMIM:159950,ORPHA:333,ORPHA:2590"
429	ASCL1	"ORPHA:99803,OMIM:209880"
55870	ASH1L	OMIM:617796
435	ASL	"OMIM:207900,ORPHA:23"
443	ASPA	"ORPHA:314911,ORPHA:314918,OMIM:271900"
259266	ASPM	"OMIM:608716,ORPHA:2512"
445	ASS1	OMIM:215700
171023	ASXL1	"ORPHA:97297,OMIM:614286,OMIM:605039"
55252	ASXL2	OMIM:617190
80816	ASXL3	OMIM:615485
84896	ATAD1	"OMIM:618011,ORPHA:3197"
55210	ATAD3A	"ORPHA:496790,OMIM:617183"
471	ATIC	"ORPHA:250977,OMIM:608688"
51062	ATL1	"ORPHA:100984,OMIM:613708,OMIM:182600"
477	ATP1A2	"OMIM:602481,OMIM:104290,ORPHA:569"
478	ATP1A3	"OMIM:614820,ORPHA:71517,OMIM:128235,OMIM:601338,ORPHA:1171"
488	ATP2A2	"OMIM:101900,OMIM:124200,ORPHA:218"
492	ATP2B3	"ORPHA:314978,OMIM:302500"
514	ATP5F1E	OMIM:614053
537	ATP6AP1	OMIM:300972
10159	ATP6AP2	"ORPHA:363654,OMIM:300911,OMIM:300423"
23545	ATP6V0A2	"ORPHA:357074,ORPHA:2834,OMIM:219200,OMIM:278250"
523	ATP6V1A	"ORPHA:357074,OMIM:618012,OMIM:617403,ORPHA:442835"
526	ATP6V1B2	"OMIM:124480,ORPHA:3473,OMIM:616455,ORPHA:79499"
529	ATP6V1E1	"OMIM:617402,ORPHA:357074"
538	ATP7A	"ORPHA:565,OMIM:304150,OMIM:300489,OMIM:309400,ORPHA:198"
540	ATP7B	"ORPHA:905,OMIM:277900"
51761	ATP8A2	"ORPHA:1766,OMIM:615268"
545	ATR	"ORPHA:808,OMIM:614564,OMIM:210600"
546	ATRX	"OMIM:301040,ORPHA:100075,ORPHA:847,OMIM:309580,ORPHA:231401,OMIM:300448"
26053	AUTS2	OMIM:615834
554	AVPR2	"OMIM:304800,ORPHA:223,OMIM:300539"
148789	B3GALNT2	"OMIM:615181,ORPHA:899,ORPHA:588"
126792	B3GALT6	"ORPHA:75496,OMIM:271640,ORPHA:93359,OMIM:615349"
145173	B3GLCT	"ORPHA:709,OMIM:261540"
2583	B4GALNT1	"ORPHA:101006,OMIM:609195"
11041	B4GAT1	"ORPHA:899,OMIM:615287"
27077	B9D1	"ORPHA:475,OMIM:617120,OMIM:614209,ORPHA:564"
92482	BBIP1	"OMIM:615995,ORPHA:110"
582	BBS1	"ORPHA:110,OMIM:209900"
79738	BBS10	"OMIM:615987,ORPHA:110"
166379	BBS12	"ORPHA:110,OMIM:615989"
583	BBS2	"OMIM:616562,OMIM:615981,ORPHA:110,ORPHA:791"
585	BBS4	"OMIM:615982,ORPHA:110"
129880	BBS5	"ORPHA:110,OMIM:615983"
55212	BBS7	"ORPHA:110,OMIM:615984"
27241	BBS9	"OMIM:615986,ORPHA:110"
10134	BCAP31	"ORPHA:369939,OMIM:300475"
593	BCKDHA	OMIM:248600
594	BCKDHB	OMIM:248600
10295	BCKDK	OMIM:614923
53335	BCL11A	OMIM:617101
64919	BCL11B	"OMIM:617237,OMIM:618092"
54880	BCOR	"ORPHA:2712,OMIM:300166,OMIM:309800,ORPHA:568"
613	BCR	"ORPHA:261330,OMIM:608232,ORPHA:521,OMIM:613065"
617	BCS1L	"OMIM:603358,ORPHA:123,OMIM:256000,OMIM:262000,ORPHA:53693,OMIM:124000"
7439	BEST1	"OMIM:611809,OMIM:193220,ORPHA:1243,OMIM:153700,ORPHA:791,ORPHA:99000,OMIM:613194"
633	BGN	"OMIM:300106,OMIM:300989"
274	BIN1	"ORPHA:169186,ORPHA:169189,OMIM:255200"
641	BLM	"ORPHA:125,OMIM:210900"
649	BMP1	OMIM:614856
2186	BPTF	"ORPHA:529962,OMIM:617755"
673	BRAF	"ORPHA:648,OMIM:613706,OMIM:115150,ORPHA:54595,OMIM:613707,OMIM:163950,ORPHA:99872,OMIM:211980,ORPHA:500,ORPHA:1340"
221927	BRAT1	"OMIM:618056,OMIM:614498"
672	BRCA1	"ORPHA:168829,OMIM:604370,OMIM:617883,ORPHA:145,ORPHA:84,ORPHA:1333,OMIM:114480"
675	BRCA2	"OMIM:605724,OMIM:612555,OMIM:176807,ORPHA:145,OMIM:155255,ORPHA:654,ORPHA:84,OMIM:194070,ORPHA:1333,OMIM:114480,OMIM:613347,OMIM:613029"
2972	BRF1	OMIM:616202
83990	BRIP1	"OMIM:609054,ORPHA:145,ORPHA:84,OMIM:114480"
7862	BRPF1	OMIM:617333
254065	BRWD3	OMIM:300659
26580	BSCL2	"OMIM:615924,ORPHA:528,OMIM:600794,ORPHA:100998,ORPHA:363400,OMIM:269700,OMIM:270685,ORPHA:139536"
7809	BSND	OMIM:602522
701	BUB1B	"OMIM:257300,ORPHA:1052,OMIM:114500,OMIM:176430"
57102	C12orf4	OMIM:618221
113246	C12orf57	OMIM:218340
91574	C12orf65	"OMIM:613559,OMIM:615035"
26005	C2CD3	OMIM:615948
760	CA2	"OMIM:259730,ORPHA:2785"
762	CA4	"OMIM:600852,ORPHA:791"
767	CA8	"ORPHA:1766,OMIM:613227"
773	CACNA1A	"ORPHA:98758,ORPHA:569,OMIM:183086,OMIM:108500,OMIM:141500,ORPHA:71518,ORPHA:442835,OMIM:617106,ORPHA:97"
775	CACNA1C	"OMIM:601005,OMIM:611875"
776	CACNA1D	"OMIM:614896,OMIM:615474,ORPHA:369929"
8913	CACNA1G	"OMIM:618087,ORPHA:458803,OMIM:616795"
785	CACNB4	"ORPHA:307,OMIM:607682,ORPHA:211067,OMIM:613855"
10369	CACNG2	OMIM:614256
815	CAMK2A	"OMIM:617798,OMIM:618095"
816	CAMK2B	OMIM:617799
23261	CAMTA1	"OMIM:614756,ORPHA:314647"
124583	CANT1	"ORPHA:1425,OMIM:617719,OMIM:251450"
8573	CASK	"ORPHA:163937,OMIM:300422,OMIM:300908,OMIM:300749"
857	CAV1	"OMIM:612526,OMIM:606721,ORPHA:528,OMIM:615343,ORPHA:220393,ORPHA:220402"
284119	CAVIN1	"ORPHA:528,OMIM:613327"
875	CBS	"OMIM:236200,ORPHA:394"
54862	CC2D1A	OMIM:608443
57545	CC2D2A	"ORPHA:1454,ORPHA:2318,OMIM:612285,OMIM:612284,OMIM:216360,ORPHA:564"
147372	CCBE1	"ORPHA:2136,OMIM:235510"
28952	CCDC22	"ORPHA:7,OMIM:300963"
79140	CCDC28B	OMIM:209900
55704	CCDC88A	OMIM:617507
440193	CCDC88C	"OMIM:236600,ORPHA:423275,OMIM:616053"
10225	CD96	"OMIM:211750,ORPHA:1308"
998	CDC42	OMIM:616737
8318	CDC45	"ORPHA:2554,OMIM:617063"
990	CDC6	"OMIM:613805,ORPHA:2554"
83879	CDCA7	"OMIM:616910,ORPHA:2268"
1009	CDH11	"ORPHA:1299,OMIM:211380"
1013	CDH15	OMIM:612580
64072	CDH23	"ORPHA:231169,ORPHA:91347,OMIM:601067,ORPHA:2965,OMIM:601386,ORPHA:96253,OMIM:617540"
92211	CDHR1	"OMIM:613660,ORPHA:1872,ORPHA:791"
8558	CDK10	OMIM:617694
8621	CDK13	OMIM:617360
55755	CDK5RAP2	"OMIM:604804,ORPHA:2512"
1021	CDK6	"ORPHA:2512,OMIM:616080"
6792	CDKL5	"ORPHA:3095,ORPHA:3451,OMIM:300672"
50937	CDON	"OMIM:614226,ORPHA:280200,ORPHA:95496"
81620	CDT1	"OMIM:613804,ORPHA:2554"
1062	CENPE	"ORPHA:808,OMIM:616051"
55835	CENPJ	"ORPHA:808,OMIM:613676,OMIM:608393,ORPHA:2512"
9731	CEP104	"ORPHA:475,OMIM:616781"
153241	CEP120	"ORPHA:475,ORPHA:474,OMIM:617761,OMIM:616300,ORPHA:220493"
9662	CEP135	"OMIM:614673,ORPHA:2512"
22995	CEP152	"ORPHA:808,OMIM:614852,OMIM:613823,ORPHA:2512"
84984	CEP19	OMIM:615703
80184	CEP290	"OMIM:611755,ORPHA:2318,OMIM:610189,OMIM:610188,ORPHA:110,OMIM:611134,ORPHA:3156,ORPHA:65,OMIM:615991,ORPHA:564"
95681	CEP41	"ORPHA:475,OMIM:614464,ORPHA:220493"
9702	CEP57	"OMIM:614114,ORPHA:1052"
80254	CEP63	"OMIM:614728,ORPHA:2512"
51134	CEP83	OMIM:615862
375298	CERKL	"OMIM:608380,ORPHA:791"
10715	CERS1	OMIM:616230
283489	CHAMP1	OMIM:616579
1103	CHAT	"ORPHA:98914,OMIM:254210"
1105	CHD1	"OMIM:617682,ORPHA:529965"
1106	CHD2	"OMIM:615369,ORPHA:2382,ORPHA:1942"
1108	CHD4	OMIM:617159
55636	CHD7	"OMIM:612370,ORPHA:432,ORPHA:478,OMIM:214800,ORPHA:138,ORPHA:39041"
57680	CHD8	OMIM:615032
1120	CHKB	OMIM:602541
5119	CHMP1A	OMIM:614961
1137	CHRNA4	OMIM:600513
1139	CHRNA7	"ORPHA:199318,OMIM:612001"
1146	CHRNG	"OMIM:265000,OMIM:253290,ORPHA:2990"
113189	CHST14	OMIM:601776
9469	CHST3	"OMIM:245600,OMIM:143095,ORPHA:263463"
10518	CIB2	"OMIM:614869,ORPHA:231169,OMIM:609439"
23152	CIC	OMIM:617600
493856	CISD2	"ORPHA:3463,OMIM:604928"
11113	CIT	"OMIM:617090,ORPHA:2512"
150468	CKAP2L	"OMIM:272440,ORPHA:3255"
1181	CLCN2	"OMIM:605635,OMIM:615651,ORPHA:307,OMIM:607628"
1183	CLCN4	"OMIM:300114,ORPHA:777"
1187	CLCNKA	OMIM:613090
1188	CLCNKB	"OMIM:613090,OMIM:607364"
1193	CLIC2	OMIM:300886
1201	CLN3	OMIM:204200
1203	CLN5	OMIM:256731
2055	CLN8	"OMIM:610003,OMIM:600143,ORPHA:1947"
10978	CLP1	"OMIM:615803,ORPHA:411493"
81570	CLPB	OMIM:616271
7401	CLRN1	"OMIM:268000,ORPHA:231183,OMIM:614180,OMIM:276902,ORPHA:791"
1213	CLTC	"OMIM:617854,ORPHA:442835"
7555	CNBP	"ORPHA:606,OMIM:602668"
1259	CNGA1	"OMIM:268000,OMIM:613756,ORPHA:791"
1258	CNGB1	"OMIM:613767,ORPHA:791"
22866	CNKSR2	"ORPHA:777,OMIM:301008,ORPHA:442835"
54805	CNNM2	"OMIM:616418,ORPHA:34527,OMIM:613882"
10695	CNPY3	"ORPHA:3451,OMIM:617929"
6900	CNTN2	"OMIM:615400,ORPHA:86814"
26047	CNTNAP2	OMIM:610042
65260	COA7	OMIM:220110
84334	COA8	OMIM:220110
10466	COG5	OMIM:613612
57511	COG6	"OMIM:615328,OMIM:614576"
84342	COG8	OMIM:611182
1305	COL13A1	"ORPHA:98914,OMIM:616720,ORPHA:98913"
1280	COL2A1	"OMIM:184250,OMIM:151210,OMIM:608805,ORPHA:85166,ORPHA:93296,OMIM:156550,ORPHA:485,ORPHA:1856,OMIM:604864,OMIM:108300,OMIM:183900,ORPHA:90653,ORPHA:85198,OMIM:132450,ORPHA:166011,ORPHA:93346,ORPHA:3450,OMIM:616583,ORPHA:2380,ORPHA:93315,OMIM:271700,OMIM:150600,ORPHA:93316,OMIM:200610,OMIM:609508,ORPHA:94068,OMIM:609162"
1281	COL3A1	"ORPHA:286,ORPHA:2500,OMIM:130050,ORPHA:231160"
1282	COL4A1	"OMIM:611773,OMIM:269160,OMIM:175780,OMIM:607595,ORPHA:899,OMIM:180000,ORPHA:73229"
10087	COL4A3BP	OMIM:616351
1291	COL6A1	"OMIM:158810,OMIM:254090,ORPHA:610,ORPHA:75840"
1292	COL6A2	"OMIM:158810,OMIM:254090,OMIM:255600,ORPHA:610,ORPHA:75840"
1293	COL6A3	"OMIM:158810,OMIM:616411,OMIM:254090,ORPHA:610,ORPHA:464440,ORPHA:75840"
10584	COLEC10	"ORPHA:293843,OMIM:248340"
78989	COLEC11	"OMIM:265050,ORPHA:293843"
8292	COLQ	"OMIM:603034,ORPHA:98915"
1311	COMP	"OMIM:132400,ORPHA:750,OMIM:177170,ORPHA:93308"
1312	COMT	"OMIM:181500,OMIM:167870,ORPHA:567"
9276	COPB2	"OMIM:617800,ORPHA:2512"
27235	COQ2	"ORPHA:227510,ORPHA:98933,OMIM:607426,OMIM:146500"
56997	COQ8A	"OMIM:612016,ORPHA:139485"
1352	COX10	"OMIM:256000,OMIM:220110"
84987	COX14	OMIM:220110
1355	COX15	"OMIM:256000,ORPHA:255241,OMIM:615119"
116228	COX20	OMIM:220110
1340	COX6B1	OMIM:220110
1349	COX7B	"OMIM:300887,OMIM:309801,ORPHA:2556"
1351	COX8A	OMIM:220110
65250	CPLANE1	"OMIM:277170,ORPHA:65684,ORPHA:475,ORPHA:2754,OMIM:614615"
10815	CPLX1	"OMIM:617976,OMIM:194190,ORPHA:352582"
1373	CPS1	"OMIM:237300,ORPHA:147"
8738	CRADD	OMIM:614499
23418	CRB1	"OMIM:600105,OMIM:613835,OMIM:172870,ORPHA:65,ORPHA:791"
51185	CRBN	OMIM:607417
1387	CREBBP	OMIM:180849
9244	CRLF1	"OMIM:272430,ORPHA:1545,ORPHA:930"
729920	CRPPA	"OMIM:616052,OMIM:614643"
10491	CRTAP	OMIM:610682
1406	CRX	"OMIM:268000,ORPHA:65,ORPHA:1872,ORPHA:791,OMIM:613829,OMIM:120970"
1457	CSNK2A1	OMIM:617062
79848	CSPP1	"ORPHA:475,ORPHA:397715,OMIM:615636,ORPHA:564"
1476	CSTB	"ORPHA:308,OMIM:254800"
1487	CTBP1	"OMIM:617915,OMIM:194190"
10664	CTCF	OMIM:615502
9150	CTDP1	"OMIM:604168,ORPHA:48431"
1496	CTNNA2	OMIM:618174
1499	CTNNB1	"ORPHA:33402,ORPHA:54595,OMIM:155255,OMIM:617572,ORPHA:873,OMIM:167000,OMIM:132600,OMIM:114550,OMIM:114500,OMIM:615075"
1497	CTNS	"OMIM:219800,OMIM:219900,ORPHA:411629,OMIM:219750"
5476	CTSA	"ORPHA:351,OMIM:256540"
1509	CTSD	OMIM:610127
8450	CUL4B	"OMIM:300354,ORPHA:85293"
9820	CUL7	"OMIM:273750,ORPHA:2616"
23316	CUX2	"ORPHA:2382,OMIM:618141"
10283	CWC27	OMIM:250410
55280	CWF19L1	"ORPHA:453521,OMIM:616127"
63932	CXorf56	OMIM:301013
1727	CYB5R3	OMIM:250800
26999	CYFIP2	"OMIM:618008,ORPHA:442835"
1591	CYP24A1	OMIM:143880
1593	CYP27A1	"OMIM:213700,ORPHA:909"
113612	CYP2U1	"OMIM:615030,ORPHA:320411"
728294	D2HGDH	OMIM:600721
51339	DACT1	"ORPHA:857,ORPHA:63260,OMIM:617466"
1605	DAG1	"ORPHA:899,OMIM:613818,OMIM:616538"
1615	DARS	OMIM:615281
1629	DBT	OMIM:248600
80067	DCAF17	"ORPHA:3464,OMIM:241080"
1630	DCC	"ORPHA:478,OMIM:617542,OMIM:133239,OMIM:157600,OMIM:114500,ORPHA:238722"
8642	DCHS1	"OMIM:601390,OMIM:607829"
1641	DCX	"OMIM:300067,ORPHA:2148"
1643	DDB2	"ORPHA:910,OMIM:278740"
23259	DDHD2	"OMIM:615033,ORPHA:320380"
1663	DDX11	OMIM:613398
1654	DDX3X	"OMIM:300958,ORPHA:457260"
83479	DDX59	"ORPHA:2919,OMIM:174300"
10522	DEAF1	"OMIM:615828,OMIM:617171,ORPHA:819"
9681	DEPDC5	OMIM:604364
9993	DGCR2	OMIM:192430
8214	DGCR6	OMIM:192430
54487	DGCR8	OMIM:192430
1718	DHCR24	"OMIM:602398,ORPHA:35107"
1717	DHCR7	"ORPHA:818,OMIM:270400"
79947	DHDDS	"OMIM:617836,ORPHA:442835,OMIM:613861,ORPHA:791"
55526	DHTKD1	"OMIM:204750,OMIM:615025"
22907	DHX30	OMIM:617804
9785	DHX38	"OMIM:618220,ORPHA:791"
57609	DIP2B	OMIM:136630
129563	DIS3L2	"OMIM:267000,ORPHA:654,ORPHA:2849"
1736	DKC1	"ORPHA:3322,ORPHA:1775,OMIM:305000"
1737	DLAT	OMIM:245348
1741	DLG3	"OMIM:300850,ORPHA:777"
10683	DLL3	"OMIM:277300,ORPHA:2311"
54567	DLL4	"ORPHA:974,ORPHA:1114,OMIM:616589"
1756	DMD	"ORPHA:98895,ORPHA:98896,OMIM:300376,ORPHA:154,ORPHA:777,OMIM:302045,OMIM:310200"
1760	DMPK	"OMIM:160900,ORPHA:273"
23312	DMXL2	"OMIM:617605,OMIM:616113"
1763	DNA2	"OMIM:615156,ORPHA:352470,OMIM:615807"
56521	DNAJC12	OMIM:617384
131118	DNAJC19	"OMIM:610198,ORPHA:66634"
134218	DNAJC21	"OMIM:617052,ORPHA:811,OMIM:260400"
5611	DNAJC3	"OMIM:616192,ORPHA:445062"
9829	DNAJC6	"OMIM:615528,ORPHA:391411"
10126	DNAL4	"OMIM:616059,ORPHA:238722"
1759	DNM1	"OMIM:616346,ORPHA:2382,ORPHA:442835"
1788	DNMT3A	"OMIM:601626,OMIM:615879"
1789	DNMT3B	"OMIM:242860,ORPHA:2268"
57572	DOCK6	"ORPHA:974,OMIM:614219"
22845	DOLK	"ORPHA:154,ORPHA:91131,OMIM:610768"
29980	DONSON	"OMIM:617604,OMIM:251230"
1798	DPAGT1	"OMIM:608093,ORPHA:86309,OMIM:614750,ORPHA:353327"
5977	DPF2	"ORPHA:1465,OMIM:618027"
1801	DPH1	OMIM:616901
54344	DPM3	"OMIM:612937,ORPHA:263494"
1804	DPP6	"OMIM:616311,ORPHA:2514,OMIM:612956"
1806	DPYD	"ORPHA:293948,OMIM:274270"
1807	DPYS	OMIM:222748
147409	DSG4	"OMIM:607903,ORPHA:573,ORPHA:55654"
50506	DUOX2	"ORPHA:95716,ORPHA:226316,OMIM:607200"
405753	DUOXA2	"ORPHA:95716,OMIM:274900"
1855	DVL1	"OMIM:616331,OMIM:180700,ORPHA:3107"
1857	DVL3	"OMIM:616894,OMIM:180700,ORPHA:3107"
54808	DYM	"ORPHA:239,OMIM:607326,OMIM:223800"
1778	DYNC1H1	"OMIM:614563,OMIM:614228,OMIM:158600"
51626	DYNC2LI1	"OMIM:617088,ORPHA:474,ORPHA:289"
1859	DYRK1A	OMIM:614104
253738	EBF3	OMIM:617330
10682	EBP	"OMIM:300960,ORPHA:35173,OMIM:302960"
1889	ECE1	"OMIM:145500,ORPHA:388,OMIM:613870"
1892	ECHS1	"ORPHA:255241,OMIM:616277"
80153	EDC3	OMIM:616460
1908	EDN3	"ORPHA:661,ORPHA:388,OMIM:613265,OMIM:209880,ORPHA:897,OMIM:613712"
1910	EDNRB	"OMIM:600501,OMIM:600155,ORPHA:388,ORPHA:895,OMIM:277580,ORPHA:897"
8726	EED	"OMIM:617561,ORPHA:3447"
1917	EEF1A2	"OMIM:616409,OMIM:616393,ORPHA:442835"
114327	EFHC1	"ORPHA:307,OMIM:254770,ORPHA:1941,OMIM:607631"
79631	EFL1	"ORPHA:811,OMIM:617941"
1947	EFNB1	"ORPHA:1520,OMIM:304110"
9343	EFTUD2	"ORPHA:79113,OMIM:610536"
1950	EGF	"OMIM:611718,ORPHA:34527"
79813	EHMT1	"ORPHA:96147,OMIM:610253"
9451	EIF2AK3	"OMIM:226980,ORPHA:1667"
1968	EIF2S3	"ORPHA:85282,OMIM:300148"
63916	ELMO2	"OMIM:606893,ORPHA:3019"
2006	ELN	"ORPHA:3193,OMIM:185500,OMIM:194050,ORPHA:90348,ORPHA:91387,ORPHA:904,OMIM:123700"
6785	ELOVL4	"ORPHA:827,OMIM:600110,OMIM:133190,ORPHA:1955,OMIM:614457"
55250	ELP2	OMIM:617270
23065	EMC1	OMIM:616875
2010	EMD	"OMIM:310300,ORPHA:98863"
2009	EML1	OMIM:600348
953	ENTPD1	"ORPHA:401810,OMIM:615683"
285203	EOGT	"ORPHA:974,OMIM:615297"
2033	EP300	"OMIM:180849,OMIM:613684,OMIM:114500"
2036	EPB41L1	OMIM:614257
57724	EPG5	"OMIM:242840,ORPHA:1493"
2068	ERCC2	"OMIM:610756,ORPHA:220295,OMIM:278730,OMIM:601675,ORPHA:1466,ORPHA:910"
2071	ERCC3	"OMIM:610651,ORPHA:220295,OMIM:616390,ORPHA:910"
2072	ERCC4	"ORPHA:220295,OMIM:610965,OMIM:278760,ORPHA:84,ORPHA:910,OMIM:615272"
2073	ERCC5	"ORPHA:220295,OMIM:616570,OMIM:278780,ORPHA:1466,ORPHA:910"
2074	ERCC6	"OMIM:278800,OMIM:600630,ORPHA:1466,OMIM:616946,OMIM:214150,OMIM:211980,OMIM:133540"
1161	ERCC8	"OMIM:216400,OMIM:614621"
2077	ERF	"ORPHA:35093,ORPHA:2343,ORPHA:207,OMIM:600775,ORPHA:3267,OMIM:617180"
11160	ERLIN2	"OMIM:611225,ORPHA:209951,ORPHA:247604"
55780	ERMARD	"ORPHA:75857,OMIM:615544"
157570	ESCO2	"OMIM:269000,OMIM:268300,ORPHA:3103"
8220	ESS2	OMIM:192430
23474	ETHE1	"ORPHA:51188,OMIM:602473"
2121	EVC	"OMIM:193530,OMIM:225500,ORPHA:289,ORPHA:952"
132884	EVC2	"OMIM:193530,OMIM:225500,ORPHA:289,ORPHA:952"
23404	EXOSC2	OMIM:617763
2131	EXT1	"OMIM:133700,ORPHA:321,OMIM:215300,ORPHA:502"
2132	EXT2	"OMIM:133701,ORPHA:321,OMIM:616682,ORPHA:52022"
2137	EXTL3	OMIM:617425
2138	EYA1	"ORPHA:52429,ORPHA:2792,OMIM:602588,OMIM:113650,OMIM:166780,ORPHA:107"
346007	EYS	"OMIM:602772,ORPHA:791"
2146	EZH2	"OMIM:277590,ORPHA:3447"
79152	FA2H	"ORPHA:171629,OMIM:612319"
63901	FAM111A	"ORPHA:93325,OMIM:602361,OMIM:127000"
84668	FAM126A	"OMIM:610532,ORPHA:85163"
84140	FAM161A	"OMIM:606068,ORPHA:791"
2175	FANCA	"OMIM:227650,ORPHA:84"
2187	FANCB	"OMIM:314390,ORPHA:84,OMIM:300514,ORPHA:3412"
2176	FANCC	"ORPHA:84,OMIM:227645"
2177	FANCD2	"OMIM:227646,ORPHA:84"
2178	FANCE	"ORPHA:84,OMIM:600901"
2188	FANCF	"OMIM:603467,ORPHA:84"
2189	FANCG	"ORPHA:84,OMIM:614082"
55215	FANCI	"ORPHA:84,OMIM:609053"
55120	FANCL	"ORPHA:84,OMIM:614083"
57697	FANCM	"OMIM:618086,ORPHA:84,ORPHA:399805,OMIM:618096"
84188	FAR1	OMIM:616154
22868	FASTKD2	OMIM:220110
79633	FAT4	"OMIM:615546,OMIM:616006,ORPHA:2136"
2200	FBN1	"OMIM:604308,OMIM:129600,ORPHA:2084,ORPHA:1885,OMIM:184900,OMIM:608328,ORPHA:2833,OMIM:616914,ORPHA:969,ORPHA:91387,OMIM:614185,ORPHA:3449,ORPHA:284979,OMIM:102370,ORPHA:2462,OMIM:154700"
80204	FBXO11	OMIM:618089
79791	FBXO31	OMIM:615979
2245	FGD1	"OMIM:305400,ORPHA:915"
2257	FGF12	"ORPHA:442835,OMIM:617166"
2259	FGF14	"ORPHA:98764,OMIM:609307"
2253	FGF8	"ORPHA:432,ORPHA:478,ORPHA:280200,OMIM:612702"
2260	FGFR1	"ORPHA:3366,OMIM:101600,ORPHA:2396,ORPHA:93258,OMIM:123150,ORPHA:280200,OMIM:613001,OMIM:190440,OMIM:166250,ORPHA:99798,ORPHA:432,ORPHA:2117,ORPHA:478,ORPHA:3157,OMIM:147950,OMIM:615465,ORPHA:2645"
2263	FGFR2	"OMIM:101600,ORPHA:93258,ORPHA:207,OMIM:123150,ORPHA:83,OMIM:123790,OMIM:614592,ORPHA:168624,ORPHA:1555,ORPHA:93260,ORPHA:794,OMIM:123500,ORPHA:313855,OMIM:613659,OMIM:101200,OMIM:101400,OMIM:609579,ORPHA:93259,ORPHA:1540,ORPHA:87,OMIM:149730,OMIM:207410"
2261	FGFR3	"ORPHA:35099,ORPHA:93262,ORPHA:794,OMIM:610474,ORPHA:93274,OMIM:602849,OMIM:612247,OMIM:273300,OMIM:149730,ORPHA:35098,OMIM:187600,OMIM:100800,ORPHA:1860,OMIM:603956,ORPHA:85165,ORPHA:53271,ORPHA:85164,ORPHA:15,OMIM:187601,ORPHA:429,OMIM:162900,OMIM:146000,OMIM:109800,OMIM:114500,OMIM:616482"
53834	FGFRL1	OMIM:194190
2271	FH	"OMIM:150800,ORPHA:523,ORPHA:29072,OMIM:606812"
2273	FHL1	"OMIM:300696,OMIM:300695,ORPHA:98863,OMIM:300280,OMIM:300718,OMIM:300717"
9158	FIBP	OMIM:617107
79147	FKRP	"OMIM:607155,OMIM:236670,OMIM:613153,ORPHA:34515,ORPHA:899,ORPHA:588,ORPHA:370980,OMIM:606612"
2218	FKTN	"OMIM:611615,OMIM:236670,OMIM:253800,ORPHA:154,OMIM:611588,ORPHA:899,ORPHA:588,ORPHA:370980,OMIM:613152,ORPHA:272"
201163	FLCN	"OMIM:173600,OMIM:144700,ORPHA:122,OMIM:135150,OMIM:610883,OMIM:114500,ORPHA:2903"
2313	FLI1	"OMIM:617443,ORPHA:851,ORPHA:2308,ORPHA:370348"
2316	FLNA	"OMIM:309350,ORPHA:2301,ORPHA:2484,OMIM:300244,OMIM:304120,OMIM:305620,ORPHA:1826,OMIM:300049,ORPHA:99811,OMIM:300048,OMIM:300321,OMIM:311300,ORPHA:90652,ORPHA:90650,OMIM:314400"
2317	FLNB	"OMIM:108720,ORPHA:1263,OMIM:150250,ORPHA:56305,OMIM:112310,OMIM:272460,ORPHA:503,OMIM:108721"
28982	FLVCR1	"ORPHA:88628,OMIM:609033"
56776	FMN2	OMIM:616193
2332	FMR1	"ORPHA:261483,ORPHA:908,OMIM:311360,OMIM:300623,OMIM:300624,ORPHA:93256"
2348	FOLR1	OMIM:613068
2304	FOXE1	"OMIM:616534,ORPHA:319487,ORPHA:1226,ORPHA:95713,OMIM:241850"
2301	FOXE3	"ORPHA:83461,OMIM:617349,ORPHA:88632,ORPHA:708,OMIM:610256,ORPHA:91387"
2290	FOXG1	"ORPHA:261144,ORPHA:3095,OMIM:613454"
2299	FOXI1	"OMIM:600791,ORPHA:705,OMIM:274600"
27086	FOXP1	"ORPHA:52417,OMIM:613670"
55572	FOXRED1	"ORPHA:255241,OMIM:618241,ORPHA:2609"
80144	FRAS1	"ORPHA:2052,OMIM:219000"
341640	FREM2	"ORPHA:2052,OMIM:617666"
2483	FRG1	"OMIM:158900,ORPHA:269"
55691	FRMD4A	"ORPHA:466688,OMIM:616819"
9758	FRMPD4	"OMIM:300983,ORPHA:777"
23732	FRRS1L	OMIM:616981
25794	FSCN2	"OMIM:607921,ORPHA:791"
10841	FTCD	OMIM:229100
2512	FTL	"OMIM:600886,OMIM:615604,ORPHA:254704,ORPHA:163,OMIM:606159,ORPHA:157846"
24140	FTSJ1	"OMIM:309549,ORPHA:777"
2517	FUCA1	"OMIM:230000,ORPHA:349"
2530	FUT8	OMIM:618005
2535	FZD2	"ORPHA:93328,ORPHA:3107,OMIM:164745"
9568	GABBR2	"ORPHA:3095,OMIM:617904,OMIM:617903"
2554	GABRA1	"ORPHA:307,ORPHA:33069,OMIM:615744"
2561	GABRB2	"ORPHA:442835,OMIM:617829"
2562	GABRB3	"ORPHA:2382,OMIM:617113,OMIM:612269"
2563	GABRD	"ORPHA:307,ORPHA:1606,OMIM:613060"
2571	GAD1	OMIM:603513
2582	GALE	OMIM:230350
2588	GALNS	OMIM:253000
2592	GALT	"ORPHA:79239,OMIM:230400"
2593	GAMT	OMIM:612736
8139	GAN	"OMIM:256850,ORPHA:643"
2623	GATA1	"OMIM:300367,OMIM:300835,ORPHA:231393,ORPHA:67044,OMIM:314050,ORPHA:79277,ORPHA:124,OMIM:190685"
2626	GATA4	"OMIM:614430,OMIM:615542,ORPHA:251071,ORPHA:3303,OMIM:607941,OMIM:187500,ORPHA:251510,OMIM:614429"
2627	GATA6	"OMIM:614474,OMIM:614475,OMIM:217095,ORPHA:2140,ORPHA:3303,OMIM:600001,OMIM:187500,ORPHA:2255"
57459	GATAD2B	OMIM:615074
2628	GATM	OMIM:612718
57704	GBA2	"OMIM:614409,ORPHA:352641,ORPHA:320391"
2632	GBE1	"OMIM:263570,OMIM:232500,ORPHA:206583"
2643	GCH1	"ORPHA:98808,OMIM:128230,OMIM:233910"
2645	GCK	"OMIM:602485,ORPHA:99885,OMIM:125851,OMIM:606176,ORPHA:79299,OMIM:125853"
2653	GCSH	OMIM:605899
8200	GDF5	"ORPHA:63442,OMIM:615072,OMIM:228900,ORPHA:93396,OMIM:615298,OMIM:200700,ORPHA:968,OMIM:201250,OMIM:610017,ORPHA:3237,ORPHA:93388,ORPHA:3250,ORPHA:2639,ORPHA:2098,OMIM:113100,OMIM:112600,ORPHA:93384"
392255	GDF6	"ORPHA:2345,OMIM:617898,OMIM:613094,OMIM:613703,OMIM:615360,ORPHA:65,OMIM:118100"
2664	GDI1	"OMIM:300849,ORPHA:777"
2668	GDNF	"OMIM:613711,ORPHA:661,ORPHA:388,OMIM:209880,OMIM:171300"
2678	GGT1	OMIM:231950
2690	GHR	"OMIM:262500,OMIM:143890,OMIM:604271,ORPHA:633,OMIM:615925,ORPHA:314802"
2697	GJA1	"OMIM:186100,OMIM:257850,OMIM:104100,OMIM:164200,ORPHA:1522,OMIM:218400,ORPHA:93404,ORPHA:1010,OMIM:600309,ORPHA:2710,ORPHA:2248,ORPHA:317,OMIM:241550,OMIM:617525"
2702	GJA5	"OMIM:614049,OMIM:108770,ORPHA:3303,OMIM:612474"
2703	GJA8	"OMIM:116200,ORPHA:1377,OMIM:612474"
2706	GJB2	"ORPHA:2698,ORPHA:477,OMIM:220290,OMIM:148350,OMIM:149200,OMIM:148210,ORPHA:2202,OMIM:602540,OMIM:601544,OMIM:304400,OMIM:124500,ORPHA:494"
2707	GJB3	"OMIM:612644,OMIM:220290,ORPHA:317,OMIM:133200"
127534	GJB4	"OMIM:617524,ORPHA:317"
10804	GJB6	"ORPHA:477,OMIM:220290,OMIM:612643,ORPHA:189,OMIM:612645,OMIM:304400,OMIM:129500"
2710	GK	OMIM:307030
2720	GLB1	"OMIM:230600,OMIM:230500,OMIM:253010,OMIM:230650"
2731	GLDC	OMIM:605899
2735	GLI1	"ORPHA:289,OMIM:618123"
2736	GLI2	"OMIM:610829,ORPHA:280200,OMIM:615849,ORPHA:95494"
2737	GLI3	"ORPHA:36,OMIM:146510,OMIM:175700,OMIM:241800,OMIM:174700,ORPHA:380,OMIM:174200,ORPHA:672"
2741	GLRA1	"ORPHA:3197,OMIM:149400"
2743	GLRB	"ORPHA:3197,OMIM:614619"
2746	GLUD1	OMIM:606762
132158	GLYCTK	OMIM:220120
51053	GMNN	"OMIM:616835,ORPHA:2554"
29926	GMPPA	"ORPHA:869,OMIM:615510"
29925	GMPPB	"OMIM:615350,ORPHA:588,ORPHA:363623,OMIM:615351,OMIM:615352,ORPHA:353327"
2775	GNAO1	"OMIM:617493,OMIM:615473"
2776	GNAQ	"OMIM:163000,ORPHA:39044,OMIM:185300,ORPHA:3205,ORPHA:624"
2778	GNAS	"ORPHA:94089,ORPHA:2762,OMIM:174800,ORPHA:57782,ORPHA:79444,OMIM:103580,OMIM:612463,ORPHA:562,OMIM:166350,OMIM:219080,ORPHA:189427,ORPHA:79443,OMIM:612462,OMIM:603233"
2782	GNB1	"OMIM:616973,ORPHA:488613,OMIM:613065"
10681	GNB5	"OMIM:617182,OMIM:617173"
10020	GNE	"OMIM:605820,OMIM:269921,ORPHA:602,ORPHA:3166"
8443	GNPAT	OMIM:222765
79158	GNPTAB	"OMIM:252600,ORPHA:576,OMIM:252500"
84572	GNPTG	OMIM:252605
2799	GNS	OMIM:252940
92344	GORAB	"OMIM:231070,ORPHA:2078"
2812	GP1BB	"OMIM:231200,ORPHA:567,ORPHA:274"
8733	GPAA1	OMIM:617810
2719	GPC3	"ORPHA:373,ORPHA:654,OMIM:194070,OMIM:312870"
2239	GPC4	"ORPHA:373,OMIM:194070,OMIM:312870"
10082	GPC6	"ORPHA:93329,OMIM:258315"
10243	GPHN	"OMIM:615501,ORPHA:3197,OMIM:149400"
2821	GPI	OMIM:613470
54112	GPR88	OMIM:616939
29899	GPSM2	OMIM:604213
84706	GPT2	"ORPHA:477673,OMIM:616281"
2892	GRIA3	OMIM:300699
2893	GRIA4	OMIM:617864
2898	GRIK2	OMIM:611092
2902	GRIN1	"OMIM:617820,OMIM:614254"
2903	GRIN2A	OMIM:245570
2904	GRIN2B	"OMIM:613970,ORPHA:3451,OMIM:616139"
2906	GRIN2D	"OMIM:617162,ORPHA:442835"
23426	GRIP1	"ORPHA:2052,OMIM:617667"
2911	GRM1	"ORPHA:324262,OMIM:614831,OMIM:617691"
145258	GSC	OMIM:602471
2937	GSS	"OMIM:266130,OMIM:231900"
2961	GTF2E2	OMIM:616943
404672	GTF2H5	OMIM:616395
54676	GTPBP2	OMIM:617988
2979	GUCA1B	"OMIM:613827,ORPHA:791"
3000	GUCY2D	"OMIM:601777,OMIM:204000,OMIM:215500,ORPHA:65,ORPHA:1872"
60558	GUF1	"ORPHA:3451,OMIM:617065"
2990	GUSB	"OMIM:253220,ORPHA:584"
283120	H19	"OMIM:180860,OMIM:130650,ORPHA:654,OMIM:194070,OMIM:194071,ORPHA:2128"
23498	HAAO	OMIM:617660
57531	HACE1	"ORPHA:635,ORPHA:464282,OMIM:616756"
3033	HADH	"OMIM:231530,ORPHA:71212,OMIM:609975"
3030	HADHA	"ORPHA:746,ORPHA:5,OMIM:609016,OMIM:609015"
3034	HAL	"OMIM:235800,ORPHA:2157"
3039	HBA1	"OMIM:613978,OMIM:604131,ORPHA:163596,OMIM:140700,ORPHA:98791"
3040	HBA2	"OMIM:613978,OMIM:604131,ORPHA:163596,OMIM:140700,ORPHA:98791"
3052	HCCS	"OMIM:309801,ORPHA:2556"
3054	HCFC1	"ORPHA:777,OMIM:309541"
348980	HCN1	"OMIM:615871,ORPHA:442835"
10013	HDAC6	"ORPHA:163966,OMIM:300863"
55869	HDAC8	"ORPHA:199,OMIM:300882,ORPHA:3459"
57520	HECW2	OMIM:617268
3070	HELLS	"OMIM:616911,ORPHA:2268"
220296	HEPACAM	"OMIM:604004,OMIM:613925,OMIM:613926"
8925	HERC1	OMIM:617011
8924	HERC2	"OMIM:615516,OMIM:176270"
84667	HES7	"ORPHA:2311,OMIM:613686"
8820	HESX1	"ORPHA:478,ORPHA:3157,OMIM:182230,ORPHA:226307,ORPHA:95496,ORPHA:95494"
138050	HGSNAT	"OMIM:616544,ORPHA:791,OMIM:252930"
3094	HINT1	"OMIM:137200,ORPHA:324442"
3008	HIST1H1E	OMIM:617537
3097	HIVEP2	OMIM:616977
8091	HMGA2	"ORPHA:94063,OMIM:150699,ORPHA:99971"
3149	HMGB3	OMIM:300915
6927	HNF1A	"OMIM:142330,OMIM:144700,OMIM:600496,OMIM:612520,ORPHA:324575,OMIM:125853,OMIM:222100"
6928	HNF1B	"OMIM:144700,ORPHA:261265,ORPHA:93111,OMIM:125853,OMIM:137920"
3172	HNF4A	"ORPHA:263455,ORPHA:93111,OMIM:125850,OMIM:616026,OMIM:125853"
3176	HNMT	"OMIM:616739,OMIM:600807"
3178	HNRNPA1	"OMIM:615424,ORPHA:803,OMIM:615426,ORPHA:52430"
3181	HNRNPA2B1	"ORPHA:52430,OMIM:615422"
3188	HNRNPH2	OMIM:300986
3190	HNRNPK	OMIM:616580
3192	HNRNPU	"ORPHA:238769,OMIM:617391"
3242	HPD	"OMIM:140350,OMIM:276710,ORPHA:2118"
3251	HPRT1	"OMIM:300322,OMIM:300323,ORPHA:510"
3265	HRAS	"OMIM:163200,OMIM:162900,ORPHA:3071,OMIM:188470,ORPHA:2612,OMIM:218040,OMIM:109800,OMIM:137550"
3028	HSD17B10	"OMIM:300438,ORPHA:85295"
3329	HSPD1	"ORPHA:100994,OMIM:612233,OMIM:605280"
3339	HSPG2	"ORPHA:800,OMIM:255800,OMIM:224410,ORPHA:1865"
3064	HTT	"ORPHA:399,OMIM:617435,ORPHA:248111,OMIM:143100"
10075	HUWE1	"OMIM:300706,ORPHA:85328"
219844	HYLS1	"ORPHA:475,OMIM:236680,ORPHA:2189"
57061	HYMAI	"ORPHA:99886,OMIM:601410,ORPHA:96191"
3376	IARS	OMIM:617093
22858	ICK	"OMIM:612651,ORPHA:307,OMIM:617924"
3420	IDH3B	"OMIM:612572,ORPHA:791"
3423	IDS	OMIM:309900
3425	IDUA	"OMIM:607016,ORPHA:93473,OMIM:607015,OMIM:607014,ORPHA:93476,ORPHA:93474"
51124	IER3IP1	OMIM:614231
64135	IFIH1	"OMIM:182250,ORPHA:51,OMIM:615846"
3458	IFNG	"OMIM:609135,OMIM:613254"
55764	IFT122	"OMIM:218330,ORPHA:1515"
9742	IFT140	"ORPHA:474,OMIM:266920,OMIM:617781,ORPHA:65,ORPHA:791"
26160	IFT172	"ORPHA:474,OMIM:616394,ORPHA:110,OMIM:615630,ORPHA:791"
11020	IFT27	"OMIM:615996,ORPHA:110"
80173	IFT74	OMIM:617119
3476	IGBP1	"OMIM:300472,ORPHA:52055"
3479	IGF1	"OMIM:608747,ORPHA:73272"
3480	IGF1R	"ORPHA:73273,OMIM:270450"
3481	IGF2	"OMIM:180860,OMIM:130650,OMIM:616489,OMIM:194070,ORPHA:2128"
3549	IHH	"ORPHA:63446,ORPHA:93388,OMIM:607778,OMIM:112500"
8517	IKBKG	"OMIM:300291,OMIM:300584,OMIM:300640,OMIM:308300,OMIM:300636,ORPHA:464,OMIM:300301"
11141	IL1RAPL1	"ORPHA:777,OMIM:300143"
3612	IMPA1	OMIM:617323
3614	IMPDH1	"OMIM:180105,OMIM:613837,ORPHA:65,ORPHA:791"
50939	IMPG2	"OMIM:616152,OMIM:613581,ORPHA:791,ORPHA:99000"
56623	INPP5E	"ORPHA:1454,OMIM:610156,ORPHA:475,OMIM:213300,ORPHA:220493"
51763	INPP5K	"ORPHA:559,OMIM:617404"
3630	INS	"ORPHA:99885,OMIM:616214,OMIM:613370,OMIM:606176,OMIM:125852"
3653	IPW	OMIM:176270
9657	IQCB1	"OMIM:609254,ORPHA:3156,ORPHA:65"
23096	IQSEC2	"ORPHA:777,ORPHA:819,OMIM:309530,ORPHA:217377"
64207	IRF2BPL	OMIM:618088
3679	ITGA7	"OMIM:613204,ORPHA:2020"
3694	ITGB6	"ORPHA:2850,OMIM:616221"
3708	ITPR1	"ORPHA:1065,OMIM:606658,ORPHA:98769,OMIM:206700,ORPHA:208513,OMIM:117360"
389434	IYD	"ORPHA:95716,OMIM:274800"
182	JAG1	"OMIM:118450,ORPHA:3303,OMIM:187500"
23189	KANK1	OMIM:612900
284058	KANSL1	OMIM:610443
7994	KAT6A	"OMIM:616268,ORPHA:457193"
23522	KAT6B	"ORPHA:648,ORPHA:85201,OMIM:606170,OMIM:603736,ORPHA:3047"
3737	KCNA2	"ORPHA:442835,OMIM:616366"
3745	KCNB1	"OMIM:616056,ORPHA:442835"
3748	KCNC3	"ORPHA:98768,OMIM:605259"
3756	KCNH1	"ORPHA:3473,OMIM:135500,OMIM:611816"
3758	KCNJ1	OMIM:241200
3766	KCNJ10	"OMIM:600791,ORPHA:199343,OMIM:612780,ORPHA:705,OMIM:274600"
3767	KCNJ11	"OMIM:610582,ORPHA:99885,ORPHA:276580,ORPHA:79134,OMIM:606176,OMIM:601820,ORPHA:99886,OMIM:125853,OMIM:616329"
3769	KCNJ13	"OMIM:614186,OMIM:193230,ORPHA:65"
3763	KCNJ6	"OMIM:614098,ORPHA:435628"
51305	KCNK9	OMIM:612292
3778	KCNMA1	"ORPHA:79137,OMIM:617643,OMIM:609446"
10984	KCNQ1OT1	"OMIM:130650,ORPHA:2128"
3785	KCNQ2	"ORPHA:306,OMIM:121200,OMIM:613720,ORPHA:439218,ORPHA:1949"
3786	KCNQ3	"ORPHA:307,ORPHA:306,OMIM:121201,ORPHA:1949"
56479	KCNQ5	OMIM:617601
57582	KCNT1	"OMIM:615005,OMIM:614959"
154881	KCTD7	"ORPHA:263516,OMIM:611726"
10765	KDM5B	OMIM:618109
8242	KDM5C	"OMIM:300534,ORPHA:85279"
7403	KDM6A	"OMIM:147920,OMIM:300867,ORPHA:2322"
2531	KDSR	"ORPHA:316,OMIM:617526,ORPHA:317"
23247	KIAA0556	"ORPHA:475,OMIM:616784"
9786	KIAA0586	"OMIM:616546,ORPHA:475,OMIM:616490,ORPHA:397715"
9851	KIAA0753	"OMIM:617127,ORPHA:2754"
84162	KIAA1109	OMIM:617822
57498	KIDINS220	"OMIM:617296,ORPHA:521390"
3832	KIF11	"ORPHA:2526,OMIM:152950"
9928	KIF14	"OMIM:617914,OMIM:616258,ORPHA:2512"
547	KIF1A	"ORPHA:101010,ORPHA:970,OMIM:614213,ORPHA:2836,OMIM:201300,OMIM:610357,OMIM:614255"
26128	KIF1BP	"OMIM:609460,ORPHA:66629"
10749	KIF1C	"OMIM:611302,ORPHA:397946"
24137	KIF4A	OMIM:300923
374654	KIF7	"ORPHA:36,ORPHA:2754,ORPHA:166024,OMIM:607131,ORPHA:2189,OMIM:200990,OMIM:614120"
3815	KIT	"ORPHA:79455,ORPHA:280794,ORPHA:98849,OMIM:154800,OMIM:606764,OMIM:601626,ORPHA:44890,OMIM:273300,ORPHA:280785,ORPHA:2884,OMIM:172800"
55857	KIZ	"OMIM:615780,ORPHA:791"
51621	KLF13	OMIM:612001
80311	KLHL15	OMIM:300982
55975	KLHL7	"OMIM:617055,ORPHA:97297,ORPHA:791,OMIM:612943"
100144748	KLLN	"ORPHA:201,OMIM:615107"
4297	KMT2A	"ORPHA:199,OMIM:605130,ORPHA:319182"
58508	KMT2C	OMIM:617768
8085	KMT2D	"OMIM:147920,ORPHA:2322"
51111	KMT5B	OMIM:617788
57082	KNL1	"OMIM:604321,ORPHA:2512"
11133	KPTN	OMIM:615637
3845	KRAS	"OMIM:260350,ORPHA:648,ORPHA:3339,OMIM:163200,ORPHA:2396,ORPHA:2612,OMIM:601626,ORPHA:1340,OMIM:614470,OMIM:609942,ORPHA:144,OMIM:137215,OMIM:615278,OMIM:109800,ORPHA:1333,OMIM:108010,OMIM:211980,OMIM:114480"
3887	KRT81	"OMIM:158000,ORPHA:573"
3889	KRT83	"ORPHA:316,OMIM:158000,OMIM:617756,ORPHA:573"
3891	KRT85	OMIM:602032
3892	KRT86	"OMIM:158000,ORPHA:573"
339855	KY	"ORPHA:496689,OMIM:617114"
8942	KYNU	"OMIM:617661,ORPHA:79155,OMIM:236800"
3897	L1CAM	"ORPHA:2466,ORPHA:1497,OMIM:304100,OMIM:303350,OMIM:307000,ORPHA:2182"
79944	L2HGDH	"ORPHA:79314,OMIM:236792"
8270	LAGE3	"ORPHA:2065,OMIM:301006"
3908	LAMA2	"OMIM:607855,ORPHA:258,OMIM:618138"
3912	LAMB1	OMIM:615191
3913	LAMB2	"OMIM:614199,ORPHA:98915,OMIM:609049"
3920	LAMP2	"OMIM:300257,ORPHA:34587"
9215	LARGE1	"OMIM:236670,ORPHA:899,OMIM:613154,ORPHA:588,OMIM:608840"
51574	LARP7	OMIM:615071
81887	LAS1L	"OMIM:309585,ORPHA:3459"
3930	LBR	"OMIM:613471,OMIM:169400,ORPHA:779,OMIM:215140,ORPHA:1426"
167691	LCA5	"OMIM:604537,ORPHA:65"
23592	LEMD3	"ORPHA:166119,OMIM:166700,ORPHA:94063,ORPHA:1879,ORPHA:1306"
3953	LEPR	"ORPHA:179494,OMIM:614963"
3954	LETM1	"ORPHA:280,OMIM:194190"
3955	LFNG	"OMIM:609813,ORPHA:2311"
8022	LHX3	"OMIM:221750,ORPHA:231720,ORPHA:226307"
89884	LHX4	"ORPHA:226307,OMIM:262700,ORPHA:95496,ORPHA:95494"
3977	LIFR	"ORPHA:3206,OMIM:601559"
3981	LIG4	"ORPHA:99812,OMIM:606593,ORPHA:235,OMIM:254500,ORPHA:39041"
84894	LINGO1	OMIM:618103
55180	LINS1	OMIM:614340
51601	LIPT1	"ORPHA:255241,OMIM:616299"
81562	LMAN2L	OMIM:616887
64327	LMBR1	"OMIM:135750,OMIM:200500,OMIM:174500,ORPHA:3332,ORPHA:2378,ORPHA:93405,OMIM:186200,ORPHA:931,OMIM:188740"
4000	LMNA	"OMIM:610140,OMIM:616516,OMIM:115200,ORPHA:280365,ORPHA:79084,OMIM:151660,ORPHA:157973,ORPHA:740,OMIM:275210,OMIM:176670,ORPHA:2348,ORPHA:2229,ORPHA:264,ORPHA:98855,OMIM:181350,ORPHA:90153,ORPHA:363618,OMIM:605588,ORPHA:98853,ORPHA:168796,OMIM:212112,ORPHA:79474,OMIM:248370,OMIM:613205,ORPHA:1662"
4001	LMNB1	"ORPHA:99027,OMIM:169500"
84823	LMNB2	"OMIM:608709,OMIM:616540,ORPHA:79087"
9361	LONP1	"OMIM:600373,ORPHA:1458"
9227	LRAT	"OMIM:268000,ORPHA:65,ORPHA:791,OMIM:613341"
4035	LRP1	OMIM:604093
4036	LRP2	"OMIM:222448,ORPHA:2143"
4041	LRP5	"OMIM:133780,OMIM:166710,ORPHA:2924,OMIM:607634,OMIM:617875,ORPHA:3416,ORPHA:90050,OMIM:601813,OMIM:607636,ORPHA:2788,OMIM:144750,ORPHA:2790,ORPHA:178377,OMIM:259770"
4053	LTBP2	"OMIM:613086,OMIM:614819,ORPHA:98976,OMIM:251750,OMIM:600975,ORPHA:3449"
90624	LYRM7	OMIM:615838
1130	LYST	"OMIM:214500,ORPHA:352723,ORPHA:167"
54585	LZTFL1	"ORPHA:110,OMIM:615994"
10586	MAB21L2	OMIM:615877
10459	MAD2L2	"ORPHA:84,OMIM:617243"
4094	MAF	"ORPHA:1377,OMIM:601088,OMIM:610202"
4099	MAG	"OMIM:616680,ORPHA:459056"
54551	MAGEL2	"OMIM:615547,OMIM:176270"
4117	MAK	"OMIM:614181,ORPHA:791"
11253	MAN1B1	OMIM:614202
4125	MAN2B1	OMIM:248500
4126	MANBA	"ORPHA:118,OMIM:248510"
4128	MAOA	"ORPHA:3057,OMIM:300615"
5604	MAP2K1	"OMIM:163950,OMIM:615279,ORPHA:1340"
5605	MAP2K2	"OMIM:615280,ORPHA:1340,ORPHA:638"
51776	MAP3K20	"OMIM:617760,OMIM:616890,ORPHA:2020"
6885	MAP3K7	"ORPHA:1826,ORPHA:3238,OMIM:617137,OMIM:157800"
10982	MAPRE2	"OMIM:616734,ORPHA:2505"
4141	MARS	"OMIM:616280,OMIM:615486,ORPHA:401835"
92935	MARS2	"OMIM:611390,OMIM:616430,ORPHA:314603"
5648	MASP1	"ORPHA:293843,OMIM:257920"
4143	MAT1A	OMIM:250850
55777	MBD5	"ORPHA:228402,OMIM:156200"
79143	MBOAT7	OMIM:617188
51360	MBTPS2	"ORPHA:659,OMIM:308800,ORPHA:2273,ORPHA:85284,OMIM:300918,OMIM:301014,OMIM:308205"
56922	MCCC1	"ORPHA:6,OMIM:210200"
64087	MCCC2	"ORPHA:6,OMIM:210210"
57192	MCOLN1	"OMIM:252650,ORPHA:578"
79648	MCPH1	"OMIM:251200,ORPHA:2512"
4204	MECP2	"OMIM:300260,ORPHA:1762,ORPHA:777,OMIM:300673,ORPHA:3095,OMIM:312750,OMIM:300055,OMIM:300496,ORPHA:778"
9968	MED12	"OMIM:300895,ORPHA:777,OMIM:309520,ORPHA:776,OMIM:305450"
23389	MED13L	"OMIM:616789,OMIM:608808"
9439	MED23	OMIM:614249
4208	MEF2C	"ORPHA:228384,OMIM:613443"
1954	MEGF8	"ORPHA:65759,OMIM:614976"
4212	MEIS2	"ORPHA:261190,OMIM:600987"
10461	MERTK	"OMIM:613862,ORPHA:791"
145873	MESP2	"OMIM:608681,OMIM:277300,ORPHA:2311"
124512	METTL23	OMIM:615942
84879	MFSD2A	"OMIM:616486,ORPHA:2512"
4247	MGAT2	"OMIM:212066,ORPHA:79329"
92667	MGME1	"OMIM:615084,ORPHA:352447"
4256	MGP	"ORPHA:85202,OMIM:245150"
11043	MID2	"ORPHA:777,OMIM:300928"
407975	MIR17HG	OMIM:614326
8195	MKKS	"OMIM:236700,ORPHA:110,ORPHA:2473,OMIM:605231"
7681	MKRN3	"OMIM:176270,OMIM:615346"
10108	MKRN3-AS1	OMIM:176270
54903	MKS1	"ORPHA:475,ORPHA:110,OMIM:617121,OMIM:249000,ORPHA:220493,OMIM:615990,ORPHA:564"
23209	MLC1	OMIM:604004
51085	MLXIPL	OMIM:194050
25974	MMACHC	"OMIM:277400,ORPHA:79282"
27249	MMADHC	"ORPHA:79283,OMIM:277410"
4337	MOCS1	OMIM:252150
8777	MPDZ	OMIM:615219
136647	MPLKIP	OMIM:234050
51116	MRPS2	OMIM:617950
6307	MSMO1	OMIM:616834
55154	MSTO1	"ORPHA:502423,OMIM:617675"
4488	MSX2	"OMIM:604757,OMIM:168500,OMIM:168550"
123263	MTFMT	"OMIM:614947,ORPHA:255241,OMIM:618248"
4522	MTHFD1	"OMIM:601634,OMIM:617780"
2475	MTOR	"OMIM:607341,OMIM:616638"
4548	MTR	"OMIM:250940,OMIM:601634"
4552	MTRR	"ORPHA:2169,OMIM:601634,OMIM:236270"
4598	MVK	"ORPHA:735,OMIM:260920,OMIM:175900,ORPHA:29,ORPHA:343,ORPHA:79152,OMIM:610377"
4613	MYCN	"ORPHA:635,OMIM:164280"
4621	MYH3	"OMIM:601680,OMIM:193700,ORPHA:1146,ORPHA:1147,ORPHA:2053,OMIM:178110"
4625	MYH7	"OMIM:160500,OMIM:255160,ORPHA:59135,OMIM:613426,OMIM:608358,ORPHA:437572,OMIM:192600,ORPHA:154,OMIM:255310,ORPHA:324604,OMIM:181430,ORPHA:1880"
4633	MYL2	"OMIM:608758,ORPHA:2020"
389827	MYMK	"ORPHA:1358,OMIM:254940"
4644	MYO5A	"ORPHA:33445,ORPHA:79476,ORPHA:79478,OMIM:214450"
4647	MYO7A	"ORPHA:231169,ORPHA:231178,OMIM:601317,OMIM:276900,OMIM:600060"
4649	MYO9A	"ORPHA:98914,OMIM:618198"
23040	MYT1L	OMIM:616521
8260	NAA10	"ORPHA:276432,OMIM:309800,OMIM:300855,ORPHA:568"
80155	NAA15	OMIM:617787
112939	NACC1	OMIM:617393
4668	NAGA	"ORPHA:79281,OMIM:609242,ORPHA:79280,OMIM:609241,ORPHA:79279"
4669	NAGLU	"OMIM:252920,OMIM:616491"
54187	NANS	OMIM:610442
79731	NARS2	OMIM:616239
4683	NBN	"ORPHA:647,OMIM:609135,ORPHA:145,OMIM:251260,OMIM:613065"
9918	NCAPD2	OMIM:617983
23310	NCAPD3	"OMIM:617984,ORPHA:2512"
54820	NDE1	"OMIM:614019,OMIM:605013"
4692	NDN	OMIM:176270
4693	NDP	"OMIM:310600,ORPHA:190,OMIM:305390,ORPHA:90050,ORPHA:649"
3340	NDST1	OMIM:616116
4705	NDUFA10	"ORPHA:255241,OMIM:618243"
55967	NDUFA12	"ORPHA:255241,OMIM:618244"
51079	NDUFA13	"ORPHA:255241,OMIM:618249"
4695	NDUFA2	"ORPHA:255241,OMIM:618235"
4704	NDUFA9	"ORPHA:255241,OMIM:618247"
91942	NDUFAF2	"ORPHA:255241,OMIM:618233,ORPHA:2609"
79133	NDUFAF5	"ORPHA:255241,OMIM:618238,ORPHA:2609"
137682	NDUFAF6	"ORPHA:255241,OMIM:618239"
54539	NDUFB11	"OMIM:300952,OMIM:309801,OMIM:301021,ORPHA:2556,ORPHA:2609"
4719	NDUFS1	"ORPHA:255241,OMIM:618226,ORPHA:2609"
4720	NDUFS2	"ORPHA:255241,ORPHA:104,ORPHA:2609,OMIM:618228"
4722	NDUFS3	"ORPHA:255241,OMIM:618230,ORPHA:2609"
4724	NDUFS4	"OMIM:252010,ORPHA:255241,ORPHA:2609"
374291	NDUFS7	"ORPHA:255241,OMIM:618224,ORPHA:2609"
4728	NDUFS8	"ORPHA:255241,ORPHA:2609,OMIM:618222"
4723	NDUFV1	"ORPHA:255241,OMIM:618225,ORPHA:2609"
4729	NDUFV2	"ORPHA:255241,OMIM:618229,ORPHA:2609"
25977	NECAP1	"OMIM:615833,ORPHA:442835"
5818	NECTIN1	"ORPHA:3253,OMIM:225060"
23327	NEDD4L	OMIM:617201
4751	NEK2	"OMIM:615565,ORPHA:791"
4758	NEU1	"ORPHA:812,OMIM:256550"
340533	NEXMIF	"ORPHA:85277,OMIM:300912"
4763	NF1	"OMIM:607785,ORPHA:139474,OMIM:193520,OMIM:601321,ORPHA:638,OMIM:162210,OMIM:162200"
4780	NFE2L2	OMIM:617744
4774	NFIA	OMIM:613735
4784	NFIX	"OMIM:602535,OMIM:614753,ORPHA:561"
4803	NGF	"ORPHA:64752,OMIM:608654"
55651	NHP2	"ORPHA:1775,OMIM:224230,OMIM:613987"
4810	NHS	"OMIM:302350,OMIM:302200,ORPHA:627"
51199	NIN	OMIM:614851
25836	NIPBL	"ORPHA:199,OMIM:122470"
7080	NKX2-1	"ORPHA:1429,OMIM:188550,OMIM:610978,ORPHA:95713,OMIM:118700"
1482	NKX2-5	"OMIM:614432,ORPHA:871,OMIM:614435,ORPHA:95713,ORPHA:3303,ORPHA:402075,ORPHA:1479,OMIM:187500,ORPHA:95712,ORPHA:2248,OMIM:217095,OMIM:108900,OMIM:225250"
84504	NKX6-2	"OMIM:617560,ORPHA:527497"
54413	NLGN3	"OMIM:300494,OMIM:300425"
57502	NLGN4X	"OMIM:300495,OMIM:300497"
58484	NLRC4	"OMIM:616115,ORPHA:47045,ORPHA:1451,OMIM:616050"
114548	NLRP3	"OMIM:607115,OMIM:191900,ORPHA:47045,ORPHA:575,OMIM:120100,OMIM:617772,ORPHA:1451,OMIM:148200"
64802	NMNAT1	"OMIM:608553,ORPHA:65,ORPHA:1872"
4838	NODAL	"ORPHA:280200,OMIM:270100"
9241	NOG	"ORPHA:3237,OMIM:611377,OMIM:184460,ORPHA:3250,ORPHA:140908,ORPHA:1412,OMIM:186500,OMIM:185800,OMIM:186570"
4841	NONO	OMIM:300967
55505	NOP10	"ORPHA:1775,OMIM:224230"
4851	NOTCH1	"ORPHA:974,OMIM:616028,ORPHA:402075,OMIM:109730"
4853	NOTCH2	"OMIM:102500,ORPHA:955,OMIM:610205"
23742	NPAP1	OMIM:176270
4864	NPC1	OMIM:257220
10577	NPC2	OMIM:607625
4867	NPHP1	"ORPHA:220497,ORPHA:110,OMIM:609583,OMIM:266900,ORPHA:3156,OMIM:256100"
4882	NPR2	"OMIM:602875,ORPHA:40,OMIM:615923,OMIM:616255"
10002	NR2E3	"OMIM:268100,OMIM:611131,ORPHA:791"
7025	NR2F1	OMIM:615722
4893	NRAS	"ORPHA:648,OMIM:163200,OMIM:162900,ORPHA:626,OMIM:188470,ORPHA:2612,OMIM:249400,OMIM:137550,OMIM:613224,OMIM:114500,OMIM:614470"
4901	NRL	"ORPHA:791,OMIM:613750"
9378	NRXN1	OMIM:614325
64324	NSD1	"OMIM:601626,ORPHA:228415,OMIM:117550,ORPHA:3447,ORPHA:821"
7468	NSD2	"ORPHA:280,OMIM:194190"
50814	NSDHL	"OMIM:308050,OMIM:300831"
54888	NSUN2	"OMIM:611091,ORPHA:235"
22978	NT5C2	"OMIM:613162,ORPHA:320396"
9423	NTN1	ORPHA:238722
4914	NTRK1	"OMIM:155240,OMIM:256800,ORPHA:64752,ORPHA:642"
4915	NTRK2	"OMIM:617830,ORPHA:3451,OMIM:613886,ORPHA:442835"
23636	NUP62	"OMIM:271930,ORPHA:225154"
116150	NUS1	"OMIM:617831,ORPHA:442835,OMIM:617082"
100506658	OCLN	"OMIM:251290,ORPHA:1229"
4952	OCRL	"OMIM:309000,OMIM:300555,ORPHA:534"
8481	OFD1	"ORPHA:244,OMIM:300424,ORPHA:2754,ORPHA:2750,OMIM:300209,OMIM:311200,ORPHA:791,OMIM:300804"
8473	OGT	OMIM:300997
4976	OPA1	"OMIM:210000,OMIM:616896,OMIM:165500,ORPHA:1215,OMIM:125250"
80207	OPA3	"ORPHA:67047,OMIM:258501,ORPHA:67036,OMIM:165300"
4983	OPHN1	"ORPHA:137831,OMIM:300486"
4998	ORC1	"OMIM:224690,ORPHA:2554"
5000	ORC4	"ORPHA:2554,OMIM:613800"
23594	ORC6	"OMIM:613803,ORPHA:2554"
55644	OSGEP	"ORPHA:2065,OMIM:617729"
5009	OTC	"OMIM:311250,ORPHA:664"
51633	OTUD6B	"OMIM:617452,ORPHA:505237"
5015	OTX2	"OMIM:610125,ORPHA:990,ORPHA:3157,OMIM:613986,ORPHA:95494"
55690	PACS1	OMIM:615009
23241	PACS2	OMIM:618067
5048	PAFAH1B1	"ORPHA:217385,OMIM:607432,ORPHA:531"
5053	PAH	"ORPHA:79254,ORPHA:2209,OMIM:261600"
5058	PAK1	OMIM:618158
5063	PAK3	"OMIM:300558,ORPHA:777"
79728	PALB2	"OMIM:610832,ORPHA:145,ORPHA:84,ORPHA:1333,OMIM:114480"
5073	PARN	"OMIM:616371,ORPHA:3322,ORPHA:1775,ORPHA:2032,OMIM:616353"
5075	PAX1	"ORPHA:2792,OMIM:615560"
5076	PAX2	"ORPHA:1475,OMIM:616002,OMIM:120330"
5077	PAX3	"OMIM:148820,OMIM:268220,OMIM:193500,OMIM:122880,ORPHA:896,ORPHA:894,ORPHA:1529"
5080	PAX6	"OMIM:106210,ORPHA:893,OMIM:165550,OMIM:120200,OMIM:136520,OMIM:120430,ORPHA:1065,OMIM:604229,ORPHA:250923,ORPHA:2253,ORPHA:35737,ORPHA:708,OMIM:194072,OMIM:148190,ORPHA:137902"
7849	PAX8	"OMIM:218700,ORPHA:95713,ORPHA:95720,ORPHA:95712"
5091	PC	OMIM:266150
388939	PCARE	"OMIM:613428,ORPHA:791"
5095	PCCA	"OMIM:606054,ORPHA:35"
5096	PCCB	"OMIM:606054,ORPHA:35"
51294	PCDH12	OMIM:251280
65217	PCDH15	"OMIM:609533,ORPHA:231169,OMIM:602083,OMIM:601067"
57526	PCDH19	"ORPHA:33069,OMIM:300088"
5116	PCNT	"ORPHA:808,OMIM:210720,ORPHA:2637"
5130	PCYT1A	"OMIM:608940,ORPHA:65,ORPHA:85167"
10846	PDE10A	"OMIM:616921,ORPHA:494526,OMIM:616922,ORPHA:494541"
5144	PDE4D	"OMIM:614613,ORPHA:950,ORPHA:280651"
5145	PDE6A	"OMIM:613810,ORPHA:791"
5158	PDE6B	"OMIM:613801,OMIM:163500,ORPHA:791,ORPHA:215"
5147	PDE6D	"OMIM:615665,ORPHA:2754"
5148	PDE6G	"OMIM:268000,ORPHA:791,OMIM:613582"
5160	PDHA1	"ORPHA:255241,OMIM:312170"
8050	PDHX	OMIM:245349
54704	PDP1	OMIM:608782
23590	PDSS1	OMIM:614651
3651	PDX1	"OMIM:260370,ORPHA:99885,OMIM:606176,OMIM:606392,OMIM:125853"
5184	PEPD	"ORPHA:742,OMIM:170100"
100131801	PET100	"ORPHA:255241,OMIM:220110"
5189	PEX1	"ORPHA:3220,OMIM:214100,ORPHA:772,ORPHA:912,OMIM:234580,OMIM:601539,ORPHA:44"
5192	PEX10	"ORPHA:247815,ORPHA:772,OMIM:614870,ORPHA:912,OMIM:614871,ORPHA:44"
8799	PEX11B	"ORPHA:772,ORPHA:912,OMIM:614920,ORPHA:44"
5193	PEX12	"ORPHA:772,ORPHA:912,OMIM:266510,OMIM:614859,ORPHA:44"
5828	PEX2	"ORPHA:772,ORPHA:912,OMIM:614866,OMIM:614867,ORPHA:44"
5830	PEX5	"ORPHA:772,ORPHA:912,OMIM:202370,OMIM:214110,OMIM:616716,ORPHA:44"
5190	PEX6	"ORPHA:3220,ORPHA:772,OMIM:616617,ORPHA:912,ORPHA:95433,OMIM:614863,ORPHA:44,OMIM:614862"
5191	PEX7	"ORPHA:773,OMIM:215100,OMIM:614879,OMIM:266500"
80055	PGAP1	"OMIM:615802,ORPHA:401820"
27315	PGAP2	OMIM:614207
93210	PGAP3	OMIM:615716
5230	PGK1	OMIM:300653
5238	PGM3	OMIM:615816
1911	PHC1	"OMIM:615414,ORPHA:2512"
84295	PHF6	"ORPHA:127,OMIM:301900"
23133	PHF8	"ORPHA:85287,OMIM:300263"
26227	PHGDH	"ORPHA:2671,OMIM:601815,ORPHA:79351,OMIM:256520"
55023	PHIP	OMIM:617991
8929	PHOX2B	"ORPHA:661,ORPHA:635,OMIM:613013,ORPHA:99803,OMIM:209880,ORPHA:2151"
5264	PHYH	"ORPHA:773,OMIM:266500"
10464	PIBF1	"ORPHA:475,OMIM:617767"
63895	PIEZO2	"ORPHA:1154,OMIM:248700,OMIM:617146,OMIM:108145,ORPHA:2461,ORPHA:376,OMIM:114300"
5279	PIGC	OMIM:617816
54872	PIGG	OMIM:616917
9487	PIGL	"OMIM:280000,ORPHA:3474"
23556	PIGN	"OMIM:614080,ORPHA:2059,ORPHA:280633"
84720	PIGO	OMIM:614749
51227	PIGP	OMIM:617599
55650	PIGV	OMIM:239300
284098	PIGW	OMIM:616025
5290	PIK3CA	"OMIM:602501,OMIM:612918,OMIM:167000,ORPHA:276280,OMIM:155500,ORPHA:144,OMIM:613659,ORPHA:201,OMIM:162900,OMIM:615108,ORPHA:60040,OMIM:613089,OMIM:182000,OMIM:114550,OMIM:211980,OMIM:114480,OMIM:114500"
5295	PIK3R1	"OMIM:615214,OMIM:616005,ORPHA:3163,OMIM:269880,ORPHA:33110"
5296	PIK3R2	"OMIM:603387,ORPHA:83473"
5309	PITX3	"OMIM:107250,ORPHA:88632,OMIM:610623"
8398	PLA2G6	"OMIM:256600,OMIM:610217,ORPHA:199351,OMIM:612953,ORPHA:35069"
9373	PLAA	"OMIM:617527,ORPHA:521426"
64857	PLEKHG2	OMIM:616763
10733	PLK4	"ORPHA:808,OMIM:616171,ORPHA:2518"
5354	PLP1	"OMIM:312920,ORPHA:99015,OMIM:312080"
11212	PLPBP	"ORPHA:3006,OMIM:617290"
23203	PMPCA	"ORPHA:1170,OMIM:213200"
9512	PMPCB	OMIM:617954
11284	PNKP	"OMIM:613402,OMIM:616267"
4860	PNP	OMIM:613179
57104	PNPLA2	"OMIM:610717,ORPHA:98908"
10908	PNPLA6	"OMIM:245800,ORPHA:1173,OMIM:215470,ORPHA:139480,ORPHA:2377,OMIM:612020,ORPHA:1180,OMIM:275400"
23126	POGZ	OMIM:616364
5422	POLA1	OMIM:301220
5428	POLG	"ORPHA:726,OMIM:613662,ORPHA:254892,ORPHA:298,ORPHA:70595,ORPHA:254886,OMIM:203700,OMIM:258450,OMIM:607459,ORPHA:94125,OMIM:603041,OMIM:157640"
9533	POLR1C	"ORPHA:861,OMIM:248390,ORPHA:88637,OMIM:616494"
11128	POLR3A	"ORPHA:447896,OMIM:264090,OMIM:607694,ORPHA:88637"
55703	POLR3B	"OMIM:146110,OMIM:607694,OMIM:614381,ORPHA:88637"
55624	POMGNT1	"OMIM:613157,OMIM:617123,OMIM:253280,ORPHA:899,ORPHA:588,OMIM:613151,ORPHA:791"
84892	POMGNT2	"OMIM:618135,OMIM:614830,ORPHA:899"
84197	POMK	"OMIM:615249,ORPHA:899,OMIM:616094"
10585	POMT1	"ORPHA:86812,OMIM:236670,OMIM:613155,OMIM:609308,ORPHA:899,ORPHA:588,ORPHA:370980"
29954	POMT2	"OMIM:236670,OMIM:613150,OMIM:613158,OMIM:613156,ORPHA:899,ORPHA:588"
5447	POR	"ORPHA:95699,OMIM:613571,OMIM:201750,OMIM:207410"
64840	PORCN	"OMIM:305600,ORPHA:2092"
5449	POU1F1	"OMIM:613038,ORPHA:226307,ORPHA:95494"
5468	PPARG	"ORPHA:528,OMIM:604367,ORPHA:79083,OMIM:125853,OMIM:601665"
8493	PPM1D	"OMIM:617450,OMIM:114480"
5500	PPP1CB	"ORPHA:2701,OMIM:617506"
84919	PPP1R15B	OMIM:616817
5518	PPP2R1A	OMIM:616362
5528	PPP2R5D	OMIM:616355
5530	PPP3CA	"OMIM:617711,ORPHA:442835,OMIM:618265"
5538	PPT1	OMIM:256730
10084	PQBP1	"OMIM:309500,ORPHA:93947,ORPHA:93946"
768206	PRCD	"OMIM:610599,ORPHA:791"
63976	PRDM16	"OMIM:615373,ORPHA:154,ORPHA:1606"
5052	PRDX1	OMIM:277400
9581	PREPL	"ORPHA:163693,ORPHA:163690,OMIM:616224"
144165	PRICKLE1	"ORPHA:308,OMIM:612437"
5573	PRKAR1A	"ORPHA:615,OMIM:101800,ORPHA:950,ORPHA:280651,ORPHA:189439,OMIM:160980,OMIM:255960,OMIM:610489,ORPHA:1359"
8575	PRKRA	"ORPHA:210571,OMIM:612067"
54496	PRMT7	OMIM:617157
5625	PRODH	"OMIM:239500,ORPHA:419,OMIM:600850"
128674	PROKR2	"ORPHA:432,OMIM:244200,ORPHA:478,ORPHA:3157,ORPHA:95496"
8842	PROM1	"ORPHA:827,OMIM:612657,OMIM:612095,OMIM:608051,OMIM:603786,ORPHA:1872,ORPHA:791"
5626	PROP1	"OMIM:262600,ORPHA:90695,ORPHA:226307,ORPHA:95494"
9129	PRPF3	"ORPHA:791,OMIM:601414"
26121	PRPF31	"ORPHA:791,OMIM:600138"
9128	PRPF4	"OMIM:615922,ORPHA:791"
24148	PRPF6	"OMIM:613983,ORPHA:791"
10594	PRPF8	"OMIM:600059,ORPHA:791"
5961	PRPH2	"OMIM:613105,ORPHA:827,OMIM:169150,OMIM:608133,ORPHA:1872,ORPHA:791,ORPHA:99000,OMIM:136880,OMIM:608161"
5631	PRPS1	"OMIM:304500,OMIM:301835,ORPHA:1187,ORPHA:99014,OMIM:311070,OMIM:300661"
112476	PRRT2	"OMIM:602066,OMIM:605751,ORPHA:31709,ORPHA:306,ORPHA:569,ORPHA:98811,ORPHA:98809,ORPHA:98810,OMIM:128200"
8492	PRSS12	OMIM:249500
5663	PSEN1	"OMIM:600274,ORPHA:154,OMIM:613694,ORPHA:100070,ORPHA:275864,OMIM:172700,OMIM:613737,ORPHA:1020,OMIM:607822,ORPHA:100069"
5664	PSEN2	"OMIM:606889,ORPHA:154,ORPHA:1020,OMIM:613697"
5696	PSMB8	"OMIM:256040,ORPHA:2615"
5718	PSMD12	"ORPHA:529962,OMIM:617516"
5723	PSPH	"OMIM:614023,ORPHA:79350"
5727	PTCH1	"OMIM:109400,ORPHA:77301,OMIM:605462,OMIM:610828,ORPHA:280200,ORPHA:377"
8643	PTCH2	"OMIM:109400,OMIM:155255,OMIM:605462,ORPHA:377"
139411	PTCHD1	"ORPHA:777,OMIM:300830"
9791	PTDSS1	"OMIM:151050,ORPHA:2658"
5728	PTEN	"ORPHA:2969,OMIM:158350,ORPHA:201,ORPHA:137608,OMIM:176807,ORPHA:145,ORPHA:65285,OMIM:605309,ORPHA:744,OMIM:607174,ORPHA:109"
5745	PTH1R	"OMIM:215045,ORPHA:296,OMIM:600002,OMIM:125350,ORPHA:79106,ORPHA:50945,OMIM:156400"
5781	PTPN11	"OMIM:151100,OMIM:156250,ORPHA:648,OMIM:607785,OMIM:163950,ORPHA:2499,ORPHA:500"
51651	PTRH2	OMIM:616263
5805	PTS	"OMIM:261640,ORPHA:13"
22827	PUF60	"ORPHA:508488,OMIM:615583"
9698	PUM1	OMIM:617931
5813	PURA	OMIM:616158
80324	PUS1	"ORPHA:2598,OMIM:600462"
83480	PUS3	OMIM:617051
145624	PWAR1	OMIM:176270
791114	PWRN1	OMIM:176270
5831	PYCR1	"ORPHA:2078,OMIM:612940,OMIM:614438"
29920	PYCR2	"OMIM:616420,ORPHA:2512"
5860	QDPR	"ORPHA:226,OMIM:261630"
54870	QRICH1	OMIM:617982
22931	RAB18	"ORPHA:2510,OMIM:614222"
51715	RAB23	"ORPHA:65759,OMIM:201000"
116442	RAB39B	"ORPHA:777,OMIM:300271,OMIM:311510,ORPHA:2379"
22930	RAB3GAP1	"ORPHA:2510,ORPHA:1387,OMIM:600118"
25782	RAB3GAP2	"ORPHA:2510,OMIM:614225,OMIM:212720,ORPHA:1387,ORPHA:401830"
5879	RAC1	OMIM:617751
5885	RAD21	"ORPHA:199,OMIM:611376,OMIM:614701"
10111	RAD50	"OMIM:613078,ORPHA:145"
5888	RAD51	"OMIM:614508,OMIM:617244,ORPHA:145,ORPHA:84,OMIM:114480,ORPHA:238722"
5889	RAD51C	"OMIM:613399,OMIM:613390,ORPHA:145,ORPHA:84"
5894	RAF1	"OMIM:611553,ORPHA:648,ORPHA:154,OMIM:615916,OMIM:611554,ORPHA:500"
10743	RAI1	"ORPHA:1713,OMIM:182290,ORPHA:819"
5903	RANBP2	"ORPHA:88619,OMIM:608033"
5915	RARB	"OMIM:615524,ORPHA:2470"
5917	RARS	"OMIM:616140,ORPHA:438114"
5925	RB1	"ORPHA:1587,OMIM:182280,OMIM:180200,OMIM:259500,OMIM:109800,ORPHA:668"
5932	RBBP8	"ORPHA:808,OMIM:606744,OMIM:251255"
55131	RBM28	OMIM:612079
9939	RBM8A	"ORPHA:3320,OMIM:274000"
27316	RBMX	OMIM:300238
5949	RBP3	"OMIM:615233,OMIM:268000,ORPHA:791"
3516	RBPJ	"ORPHA:974,OMIM:614814"
343035	RD3	"ORPHA:65,OMIM:610612"
145226	RDH12	"OMIM:612712,ORPHA:65,ORPHA:791"
9401	RECQL4	"OMIM:266280,ORPHA:1225,ORPHA:221016,OMIM:268400,OMIM:218600"
92840	REEP6	"OMIM:617304,ORPHA:791"
473	RERE	"ORPHA:1606,OMIM:616975"
5979	RET	"ORPHA:1848,OMIM:155240,OMIM:162300,OMIM:171400,ORPHA:388,ORPHA:99803,OMIM:142623,OMIM:209880,OMIM:171300,ORPHA:29072"
91869	RFT1	"ORPHA:244310,OMIM:612015"
55159	RFWD3	"OMIM:617784,ORPHA:84"
5995	RGR	"OMIM:613769,ORPHA:791"
6010	RHO	"OMIM:610445,ORPHA:791,OMIM:613731,OMIM:136880,ORPHA:215"
23221	RHOBTB2	OMIM:618004
54101	RIPK4	"ORPHA:1234,ORPHA:1401,OMIM:263650,OMIM:214350"
134701	RIPPLY2	"OMIM:616566,ORPHA:2311"
6016	RIT1	"ORPHA:648,OMIM:615355"
6017	RLBP1	"OMIM:607476,OMIM:607475,ORPHA:791,OMIM:136880"
51132	RLIM	OMIM:300978
6023	RMRP	"OMIM:250250,OMIM:607095,OMIM:250460,ORPHA:175,ORPHA:39041"
10535	RNASEH2A	"ORPHA:51,OMIM:610333"
79621	RNASEH2B	"ORPHA:51,OMIM:610181"
84153	RNASEH2C	"ORPHA:51,OMIM:610329"
7737	RNF113A	OMIM:300953
54941	RNF125	OMIM:616260
57674	RNF213	ORPHA:2573
100151683	RNU4ATAC	"OMIM:616651,OMIM:210710,ORPHA:1824,ORPHA:2636"
79641	ROGDI	"OMIM:226750,ORPHA:1946"
6094	ROM1	"OMIM:268000,OMIM:608133,ORPHA:791"
4920	ROR2	"ORPHA:1507,OMIM:113000,ORPHA:93383,OMIM:268310"
6095	RORA	OMIM:618060
6101	RP1	"OMIM:180100,ORPHA:791"
6102	RP2	"OMIM:312600,ORPHA:791"
6100	RP9	"OMIM:180104,ORPHA:791"
6121	RPE65	"OMIM:204100,ORPHA:65,ORPHA:791,OMIM:613794"
6103	RPGR	"OMIM:300029,ORPHA:244,OMIM:304020,ORPHA:49382,OMIM:300834,OMIM:300455,ORPHA:1872,ORPHA:791"
57096	RPGRIP1	"OMIM:608194,OMIM:613826,ORPHA:65,ORPHA:1872,ORPHA:564"
23322	RPGRIP1L	"OMIM:611560,ORPHA:1454,ORPHA:220497,OMIM:216360,OMIM:611561,ORPHA:564"
6134	RPL10	"ORPHA:435938,OMIM:300998"
6223	RPS19	"OMIM:105650,ORPHA:124"
6228	RPS23	OMIM:617412
6197	RPS6KA3	"ORPHA:777,OMIM:303600,ORPHA:276630,OMIM:300844,ORPHA:192"
50484	RRM2B	"OMIM:613077,ORPHA:254892,ORPHA:298,ORPHA:480,ORPHA:329336,OMIM:612075"
89970	RSPRY1	OMIM:616723
51750	RTEL1	"ORPHA:3322,ORPHA:1775,OMIM:616373,OMIM:615190,ORPHA:2032"
84816	RTN4IP1	OMIM:616732
25914	RTTN	OMIM:614833
9711	RUBCN	"ORPHA:404499,OMIM:615705"
9853	RUSC2	OMIM:617773
10329	RXYLT1	"OMIM:615041,ORPHA:899"
6261	RYR1	"OMIM:255320,ORPHA:597,ORPHA:169186,ORPHA:98905,ORPHA:169189,OMIM:255310,ORPHA:423,OMIM:145600,ORPHA:324581,ORPHA:424107,OMIM:117000,ORPHA:178145"
26278	SACS	"ORPHA:98,OMIM:270550"
6295	SAG	"OMIM:613758,OMIM:258100,ORPHA:791,ORPHA:215"
6299	SALL1	"ORPHA:857,OMIM:107480"
401474	SAMD12	"ORPHA:86814,OMIM:601068"
25939	SAMHD1	"ORPHA:51,OMIM:614415,OMIM:612952"
51128	SAR1B	"OMIM:246700,ORPHA:71"
6301	SARS	OMIM:617709
163786	SASS6	"ORPHA:2512,OMIM:616402"
23314	SATB2	"OMIM:612313,ORPHA:251019"
51119	SBDS	"OMIM:609135,ORPHA:811,OMIM:260400"
6305	SBF1	OMIM:615284
6309	SC5D	"ORPHA:46059,OMIM:607330"
49855	SCAPER	"OMIM:618195,ORPHA:791"
950	SCARB2	"ORPHA:308,OMIM:254900,ORPHA:77259"
91179	SCARF2	OMIM:600920
6323	SCN1A	"ORPHA:569,ORPHA:2382,OMIM:609634,ORPHA:33069,OMIM:604403,OMIM:607208"
6328	SCN3A	"OMIM:617938,ORPHA:442835,OMIM:617935"
6329	SCN4A	"ORPHA:99734,ORPHA:682,ORPHA:99735,OMIM:608390,ORPHA:99736,OMIM:170400,OMIM:170500,OMIM:613345,ORPHA:684,OMIM:614198,OMIM:168300,ORPHA:98913,ORPHA:681"
6334	SCN8A	"ORPHA:31709,ORPHA:306,OMIM:617080,ORPHA:442835,OMIM:614558,OMIM:614306"
6341	SCO1	OMIM:220110
57410	SCYL1	"ORPHA:466794,OMIM:616719"
10806	SDCCAG8	"OMIM:613615,OMIM:615993,ORPHA:110,ORPHA:3156"
6389	SDHA	"OMIM:256000,ORPHA:255241,OMIM:613642,ORPHA:154,ORPHA:3208,ORPHA:44890,OMIM:614165,OMIM:252011,ORPHA:29072"
6390	SDHB	"OMIM:606864,ORPHA:201,OMIM:606764,ORPHA:97286,ORPHA:3208,OMIM:115310,ORPHA:44890,OMIM:171300,ORPHA:29072"
6391	SDHC	"OMIM:606864,ORPHA:201,OMIM:606764,ORPHA:97286,ORPHA:44890,ORPHA:29072,OMIM:605373"
6392	SDHD	"OMIM:606864,ORPHA:201,ORPHA:97286,ORPHA:3208,OMIM:252011,OMIM:171300,OMIM:168000,ORPHA:29072,ORPHA:100093"
10483	SEC23B	"OMIM:224100,ORPHA:201,OMIM:616858"
57190	SELENON	"OMIM:602771,ORPHA:97244,OMIM:255310,ORPHA:324604,ORPHA:2020"
9723	SEMA3E	"OMIM:146110,OMIM:214800,ORPHA:138"
64218	SEMA4A	"OMIM:610282,ORPHA:1872,ORPHA:791,OMIM:610283"
51091	SEPSECS	OMIM:613811
84947	SERAC1	OMIM:614739
6418	SET	OMIM:618106
26040	SETBP1	"OMIM:616078,ORPHA:798,OMIM:269150"
29072	SETD2	"OMIM:616831,ORPHA:821"
55209	SETD5	"ORPHA:199,OMIM:615761"
10262	SF3B4	"ORPHA:245,ORPHA:1788,OMIM:154400"
119559	SFXN4	OMIM:615578
6448	SGSH	OMIM:252900
85358	SHANK3	"OMIM:613950,OMIM:606232,ORPHA:48652"
6469	SHH	"OMIM:269160,OMIM:611638,OMIM:142945,ORPHA:280200,OMIM:147250,ORPHA:3332,ORPHA:93405"
8036	SHOC2	"OMIM:607721,ORPHA:2701"
6473	SHOX	"ORPHA:314795,ORPHA:240,ORPHA:2632,OMIM:127300,OMIM:300582,OMIM:249700"
57477	SHROOM4	OMIM:300434
64374	SIL1	"ORPHA:559,OMIM:248800"
25942	SIN3A	"OMIM:613406,ORPHA:94065"
6496	SIX3	"OMIM:269160,OMIM:157170,ORPHA:280200"
6497	SKI	"ORPHA:1606,ORPHA:2462,OMIM:182212"
6557	SLC12A1	OMIM:601678
57468	SLC12A5	"OMIM:616685,OMIM:616645"
9990	SLC12A6	"ORPHA:1496,OMIM:218000"
284111	SLC13A5	"ORPHA:1946,OMIM:615905,ORPHA:3006,ORPHA:442835"
6566	SLC16A1	"OMIM:245340,OMIM:610021,OMIM:616095"
6567	SLC16A2	"ORPHA:59,OMIM:300523"
26503	SLC17A5	"OMIM:604369,OMIM:269920"
6572	SLC18A3	"ORPHA:98914,OMIM:617239"
80704	SLC19A3	"ORPHA:255241,OMIM:607483"
6505	SLC1A1	OMIM:222730
6506	SLC1A2	"OMIM:617105,ORPHA:442835"
6509	SLC1A4	OMIM:616657
6576	SLC25A1	"OMIM:615182,ORPHA:98914,OMIM:618197"
10166	SLC25A15	OMIM:238970
29957	SLC25A24	"ORPHA:2095,OMIM:612289,ORPHA:2963"
1836	SLC26A2	"OMIM:256050,OMIM:222600,OMIM:600972,ORPHA:93307,ORPHA:628,OMIM:226900,ORPHA:56304,ORPHA:93298"
5172	SLC26A4	"OMIM:600791,ORPHA:705,ORPHA:95713,ORPHA:95720,OMIM:274600"
55315	SLC29A3	"ORPHA:168569,ORPHA:1782,OMIM:602782"
6513	SLC2A1	"OMIM:608885,ORPHA:71277,OMIM:606777,ORPHA:98811,ORPHA:53583,OMIM:612126,OMIM:601042,OMIM:614847"
81031	SLC2A10	"OMIM:208050,ORPHA:3342"
10559	SLC35A1	"ORPHA:238459,OMIM:603585"
23443	SLC35A3	"OMIM:615553,ORPHA:370943"
55343	SLC35C1	OMIM:266265
153201	SLC36A2	"OMIM:138500,OMIM:242600"
23516	SLC39A14	"OMIM:617013,OMIM:144755"
64116	SLC39A8	OMIM:616721
6519	SLC3A1	"ORPHA:163693,ORPHA:163690,OMIM:220100"
50651	SLC45A1	OMIM:617532
113235	SLC46A1	"OMIM:229050,ORPHA:90045"
8671	SLC4A4	OMIM:604278
79581	SLC52A2	"ORPHA:97229,ORPHA:95433,OMIM:614707"
113278	SLC52A3	"ORPHA:97229,OMIM:211530,OMIM:211500"
6528	SLC5A5	"ORPHA:95716,OMIM:274400"
60482	SLC5A7	"ORPHA:98914,OMIM:158580,OMIM:617143"
6529	SLC6A1	"ORPHA:1942,OMIM:616421"
388662	SLC6A17	OMIM:616269
340024	SLC6A19	"ORPHA:2116,OMIM:234500,OMIM:138500,OMIM:242600"
54716	SLC6A20	"OMIM:138500,OMIM:242600"
9152	SLC6A5	"ORPHA:3197,OMIM:614618"
6535	SLC6A8	"ORPHA:52503,OMIM:300352"
57709	SLC7A14	"OMIM:615725,ORPHA:791"
10479	SLC9A6	"ORPHA:85278,OMIM:300243"
84189	SLITRK6	OMIM:221200
84464	SLX4	"OMIM:613951,ORPHA:84"
4089	SMAD4	"OMIM:260350,OMIM:174900,ORPHA:2588,ORPHA:1333,OMIM:139210,ORPHA:774,OMIM:175050"
6595	SMARCA2	"ORPHA:3051,OMIM:601358"
6597	SMARCA4	"OMIM:614609,ORPHA:1465,OMIM:613325"
50485	SMARCAL1	"OMIM:242900,ORPHA:1830"
6598	SMARCB1	"OMIM:614608,ORPHA:1465,ORPHA:99966,OMIM:609322,OMIM:162091"
6605	SMARCE1	"ORPHA:1465,OMIM:607174,OMIM:616938"
8243	SMC1A	"ORPHA:199,ORPHA:319182,OMIM:300590"
9126	SMC3	"ORPHA:199,OMIM:610759"
6608	SMO	"ORPHA:1553,OMIM:605462,OMIM:601707"
64093	SMOC1	"ORPHA:1106,OMIM:206920"
6609	SMPD1	"OMIM:257200,OMIM:607616"
6611	SMS	OMIM:309583
6591	SNAI2	"OMIM:608890,ORPHA:895,ORPHA:2884,OMIM:172800"
6616	SNAP25	"ORPHA:98914,OMIM:616330"
9342	SNAP29	"OMIM:609528,ORPHA:66631"
338433	SNORD115-1	OMIM:176270
100033413	SNORD116-1	OMIM:176270
23020	SNRNP200	"OMIM:610359,ORPHA:791"
6628	SNRPB	"ORPHA:1393,OMIM:117650"
6638	SNRPN	"OMIM:176270,OMIM:209850"
55084	SOBP	OMIM:613671
6651	SON	"OMIM:617140,ORPHA:500150"
50964	SOST	"OMIM:239100,ORPHA:3152,ORPHA:3416,ORPHA:1513,OMIM:122860,OMIM:269500"
6663	SOX10	"OMIM:613266,ORPHA:478,ORPHA:895,ORPHA:163746,OMIM:611584,OMIM:609136,ORPHA:897"
6664	SOX11	"ORPHA:1465,OMIM:615866"
6657	SOX2	"ORPHA:3157,ORPHA:77298,OMIM:206900"
6658	SOX3	"ORPHA:90695,ORPHA:393,ORPHA:3157,OMIM:300123,OMIM:312000"
6660	SOX5	"ORPHA:313892,OMIM:616803"
23111	SPART	"OMIM:275900,ORPHA:101000"
6683	SPAST	"OMIM:182601,ORPHA:100985"
166378	SPATA5	OMIM:616577
55812	SPATA7	"ORPHA:65,OMIM:604232,ORPHA:791"
23384	SPECC1L	"OMIM:145410,ORPHA:1519,OMIM:600251,OMIM:145420"
10290	SPEG	"ORPHA:169186,OMIM:615959"
80208	SPG11	"OMIM:604360,OMIM:602099,ORPHA:2822,OMIM:616668,ORPHA:300605"
11005	SPINK5	"OMIM:256500,ORPHA:634"
6697	SPR	"ORPHA:70594,OMIM:612716"
6709	SPTAN1	"ORPHA:3451,OMIM:613477"
6712	SPTBN2	"ORPHA:352403,OMIM:615386,OMIM:600224,ORPHA:98766"
10847	SRCAP	"OMIM:136140,ORPHA:2044"
79644	SRD5A3	"OMIM:612713,OMIM:612379"
6729	SRP54	"ORPHA:811,OMIM:260400"
27286	SRPX2	OMIM:300643
6736	SRY	"OMIM:400045,ORPHA:393,ORPHA:242,ORPHA:2138,ORPHA:1772,OMIM:400044,ORPHA:251510"
6748	SSR4	"ORPHA:370927,OMIM:300934"
6487	ST3GAL3	"ORPHA:3451,OMIM:615006,OMIM:611090"
8869	ST3GAL5	"ORPHA:370938,OMIM:609056"
246329	STAC3	OMIM:255995
10274	STAG1	OMIM:617635
6774	STAT3	"ORPHA:99885,ORPHA:2314,OMIM:615952,OMIM:147060"
6491	STIL	"OMIM:612703,ORPHA:2512"
64220	STRA6	"ORPHA:2470,OMIM:601186"
92335	STRADA	OMIM:611087
412	STS	"OMIM:308100,ORPHA:281090,ORPHA:461"
3703	STT3A	"ORPHA:370921,OMIM:615596"
201595	STT3B	"ORPHA:370924,OMIM:615597"
6812	STXBP1	"ORPHA:3095,ORPHA:3451,ORPHA:33069,ORPHA:442835,OMIM:612164"
8803	SUCLA2	"ORPHA:1933,OMIM:612073"
8802	SUCLG1	OMIM:245400
51684	SUFU	"ORPHA:36,OMIM:109400,OMIM:617757,OMIM:155255,ORPHA:280200,ORPHA:377,OMIM:607174"
285362	SUMF1	"ORPHA:585,OMIM:272200"
6834	SURF1	"OMIM:616684,OMIM:256000,ORPHA:255241"
23345	SYNE1	"ORPHA:98853,ORPHA:88644,OMIM:612998,OMIM:610743"
23224	SYNE2	"OMIM:612999,ORPHA:98853"
8831	SYNGAP1	"OMIM:612621,ORPHA:442835"
8867	SYNJ1	"OMIM:617389,ORPHA:391411,OMIM:615530,ORPHA:442835"
6855	SYP	"ORPHA:777,OMIM:300802"
255928	SYT14	"ORPHA:284271,OMIM:614229"
127833	SYT2	"ORPHA:98914,OMIM:616040"
23334	SZT2	"ORPHA:442835,OMIM:615476"
23118	TAB2	"OMIM:614980,ORPHA:228410"
6866	TAC3	"ORPHA:432,OMIM:614839"
51204	TACO1	"ORPHA:255241,OMIM:220110"
6872	TAF1	"OMIM:314250,ORPHA:53351,OMIM:300966"
6884	TAF13	"OMIM:617432,ORPHA:2512"
6873	TAF2	OMIM:615599
6878	TAF6	OMIM:617126
128989	TANGO2	OMIM:616878
6898	TAT	"OMIM:276600,ORPHA:28378"
128637	TBC1D20	"ORPHA:2510,OMIM:615663"
55773	TBC1D23	OMIM:617695
57465	TBC1D24	"ORPHA:79500,OMIM:220500,OMIM:605021,ORPHA:352596,OMIM:614617,OMIM:616044,OMIM:615338,ORPHA:352582"
51256	TBC1D7	OMIM:248000
6904	TBCD	OMIM:617193
6905	TBCE	"OMIM:244460,ORPHA:496756,ORPHA:2323,OMIM:241410,OMIM:617207,ORPHA:93324"
79718	TBL1XR1	"OMIM:602342,OMIM:616944"
6899	TBX1	"ORPHA:1727,OMIM:217095,OMIM:192430,ORPHA:3303,OMIM:188400,OMIM:187500,ORPHA:567"
6938	TCF12	"OMIM:615314,ORPHA:35099,ORPHA:35098"
6925	TCF4	"OMIM:610954,ORPHA:171,OMIM:613267,ORPHA:2896"
6948	TCN2	"ORPHA:859,OMIM:275350"
6949	TCOF1	"OMIM:154500,ORPHA:861"
79600	TCTN1	"ORPHA:475,OMIM:614173"
79867	TCTN2	"ORPHA:475,OMIM:613885,ORPHA:564,OMIM:616654"
26123	TCTN3	"OMIM:258860,ORPHA:2754,ORPHA:2753,OMIM:614815"
6999	TDO2	OMIM:600627
55775	TDP1	"ORPHA:94124,OMIM:607250"
51567	TDP2	"OMIM:616949,ORPHA:404493"
9895	TECPR2	"OMIM:615031,ORPHA:320385"
9524	TECR	OMIM:614020
7015	TERT	"OMIM:614742,OMIM:615134,OMIM:609135,OMIM:178500,ORPHA:3322,OMIM:601626,ORPHA:1775,OMIM:613989,OMIM:127550,ORPHA:618,ORPHA:2032"
7020	TFAP2A	"ORPHA:1297,OMIM:113620"
7021	TFAP2B	"OMIM:617035,OMIM:169100,ORPHA:46627"
7038	TG	"ORPHA:95716,OMIM:274700,OMIM:608175"
7046	TGFBR1	"ORPHA:60030,OMIM:132800,ORPHA:91387,OMIM:609192"
7048	TGFBR2	"ORPHA:144,ORPHA:99977,OMIM:614331,ORPHA:60030,OMIM:610168,OMIM:133239,ORPHA:91387"
7050	TGIF1	"OMIM:142946,ORPHA:280200"
343641	TGM6	"ORPHA:276193,OMIM:613908"
7054	TH	"ORPHA:101150,OMIM:605407"
57187	THOC2	OMIM:300957
79228	THOC6	OMIM:613680
92609	TIMM50	OMIM:617698
26277	TINF2	"OMIM:268130,ORPHA:3322,ORPHA:1775,OMIM:127550,OMIM:613990"
7084	TK2	"ORPHA:254875,ORPHA:254886,OMIM:617069,OMIM:609560"
7086	TKT	OMIM:617044
11011	TLK2	OMIM:618050
7098	TLR3	OMIM:613002
54499	TMCO1	"ORPHA:1394,OMIM:213980"
54664	TMEM106B	"ORPHA:100070,OMIM:617964,ORPHA:275864,ORPHA:100069"
84314	TMEM107	"OMIM:617563,ORPHA:564,OMIM:617562"
51524	TMEM138	"OMIM:614465,ORPHA:2318"
51259	TMEM216	"ORPHA:2318,OMIM:603194,ORPHA:2754,OMIM:608091,ORPHA:564"
79583	TMEM231	"ORPHA:2752,ORPHA:2318,OMIM:615397,ORPHA:564,OMIM:614970"
65062	TMEM237	"ORPHA:475,ORPHA:2318,ORPHA:220497,OMIM:614424"
339453	TMEM240	"OMIM:607454,ORPHA:98773"
79188	TMEM43	"ORPHA:98853,OMIM:614302,OMIM:604400"
91147	TMEM67	"ORPHA:1454,OMIM:613550,ORPHA:475,OMIM:602152,OMIM:610688,OMIM:216360,OMIM:607361,OMIM:615991,ORPHA:564"
54968	TMEM70	"OMIM:614052,ORPHA:1194"
55217	TMLHE	OMIM:300872
164656	TMPRSS6	"ORPHA:209981,OMIM:206200"
160418	TMTC3	OMIM:617255
8600	TNFSF11	"OMIM:259710,ORPHA:667"
23043	TNIK	OMIM:617028
7138	TNNT1	"OMIM:605355,ORPHA:98902"
10210	TOPORS	"OMIM:609923,ORPHA:791"
8626	TP63	"OMIM:603543,ORPHA:2440,ORPHA:978,OMIM:106260,OMIM:103285,ORPHA:93930,OMIM:129400,OMIM:604292,ORPHA:69085,OMIM:605289,ORPHA:1071,ORPHA:1896"
7169	TPM2	"OMIM:609285,OMIM:601680,ORPHA:171439,OMIM:108120,ORPHA:171436,OMIM:255310,ORPHA:1146,ORPHA:1147,ORPHA:171881,ORPHA:2020"
7170	TPM3	"ORPHA:171439,ORPHA:171433,OMIM:609284,OMIM:255310,ORPHA:171881,ORPHA:2020"
7173	TPO	"ORPHA:95716,OMIM:274500"
10293	TRAIP	"ORPHA:808,OMIM:616777"
22906	TRAK1	"OMIM:618201,ORPHA:442835"
60684	TRAPPC11	"ORPHA:369840,ORPHA:869,OMIM:615356,ORPHA:369847"
122553	TRAPPC6B	OMIM:617862
83696	TRAPPC9	"OMIM:613192,ORPHA:352530"
54209	TREM2	"ORPHA:803,ORPHA:100070,ORPHA:275864,ORPHA:1020,ORPHA:2770,ORPHA:100069"
11277	TREX1	"OMIM:152700,ORPHA:51,OMIM:610448,ORPHA:247691,OMIM:225750,OMIM:192315"
7200	TRH	OMIM:275120
22954	TRIM32	"ORPHA:1878,OMIM:615988,ORPHA:110,OMIM:254110"
4591	TRIM37	"ORPHA:2576,OMIM:253250"
7204	TRIO	OMIM:617061
9320	TRIP12	OMIM:617752
9319	TRIP13	"ORPHA:654,ORPHA:1052,OMIM:617598"
54802	TRIT1	OMIM:617873
93587	TRMT10A	OMIM:616033
7227	TRPS1	"OMIM:190350,ORPHA:77258,OMIM:190351,ORPHA:502"
59341	TRPV4	"ORPHA:93304,OMIM:181405,OMIM:606071,OMIM:606835,ORPHA:1216,OMIM:156530,ORPHA:2635,OMIM:113500,ORPHA:85169,OMIM:168400,OMIM:184095,OMIM:600175,OMIM:617383,ORPHA:93314,OMIM:184252"
7248	TSC1	"OMIM:607341,OMIM:606690,ORPHA:805,OMIM:191100,ORPHA:538"
7249	TSC2	"OMIM:607341,OMIM:606690,OMIM:613254,ORPHA:805,ORPHA:538"
116461	TSEN15	OMIM:617026
7252	TSHB	"OMIM:275100,ORPHA:90674"
7253	TSHR	"ORPHA:99819,ORPHA:424,OMIM:603373,ORPHA:95713,ORPHA:90673,ORPHA:95720,OMIM:609152,OMIM:275200"
7102	TSPAN7	"ORPHA:777,OMIM:300210"
123016	TTC8	"OMIM:615985,OMIM:613464,ORPHA:110,ORPHA:791"
80185	TTI2	OMIM:615541
7273	TTN	"OMIM:600334,OMIM:603689,OMIM:604145,ORPHA:169186,ORPHA:154,ORPHA:609,OMIM:608807,ORPHA:324604,OMIM:611705,ORPHA:178464,OMIM:613765"
7275	TUB	"OMIM:616188,ORPHA:791"
7846	TUBA1A	OMIM:611603
51807	TUBA8	OMIM:613180
203068	TUBB	"OMIM:615771,OMIM:156610,ORPHA:2505"
347733	TUBB2B	"OMIM:610031,ORPHA:1766"
10381	TUBB3	"OMIM:600638,ORPHA:300570,OMIM:614039"
10382	TUBB4A	"OMIM:128101,ORPHA:98805,OMIM:612438"
27229	TUBGCP4	"OMIM:616335,ORPHA:2518"
85378	TUBGCP6	"OMIM:251270,ORPHA:2518"
7287	TULP1	"OMIM:600132,OMIM:613843,ORPHA:65,ORPHA:791"
7991	TUSC3	OMIM:611093
7291	TWIST1	"OMIM:123100,ORPHA:35093,OMIM:101400,OMIM:180750,ORPHA:35099,OMIM:617746,ORPHA:35098,ORPHA:794"
117581	TWIST2	"ORPHA:920,ORPHA:1807,OMIM:200110,OMIM:209885,ORPHA:1231,OMIM:227260"
56652	TWNK	"OMIM:609286,ORPHA:1186,ORPHA:254892,ORPHA:70595,OMIM:616138,OMIM:607459,OMIM:271245"
1890	TYMP	"ORPHA:298,OMIM:603041"
79876	UBA5	"OMIM:617133,OMIM:617132,ORPHA:442835"
7319	UBE2A	OMIM:300860
29089	UBE2T	"OMIM:616435,ORPHA:84"
7337	UBE3A	"ORPHA:238446,OMIM:105830"
89910	UBE3B	"OMIM:244450,ORPHA:2707"
197131	UBR1	"OMIM:243800,ORPHA:2315"
7343	UBTF	OMIM:617672
51506	UFC1	OMIM:618076
51569	UFM1	OMIM:617899
54658	UGT1A1	"OMIM:218800,OMIM:606785,OMIM:237900,OMIM:143500,ORPHA:79235,ORPHA:79234"
285175	UNC80	OMIM:616801
51733	UPB1	OMIM:613161
65109	UPF3B	"ORPHA:777,OMIM:300676,ORPHA:776"
27089	UQCRQ	OMIM:615159
131669	UROC1	"OMIM:276880,ORPHA:210128"
10083	USH1C	"OMIM:276904,ORPHA:231169,OMIM:602092,OMIM:276900"
124590	USH1G	"ORPHA:231169,OMIM:606943"
7399	USH2A	"ORPHA:231178,OMIM:613809,OMIM:276901,ORPHA:791"
389856	USP27X	"OMIM:300984,ORPHA:777"
9101	USP8	"ORPHA:401795,ORPHA:96253,OMIM:219090"
8239	USP9X	"OMIM:300919,ORPHA:777,OMIM:300968"
6843	VAMP1	"OMIM:108600,ORPHA:98914,ORPHA:251282"
7407	VARS	OMIM:617802
7415	VCP	"ORPHA:435387,ORPHA:803,OMIM:167320,ORPHA:52430,ORPHA:275872,ORPHA:100070,ORPHA:275864,ORPHA:329478,OMIM:616687,ORPHA:329475,OMIM:613954"
7436	VLDLR	"OMIM:224050,ORPHA:1766"
203547	VMA21	OMIM:310440
55823	VPS11	"OMIM:616683,ORPHA:466934"
157680	VPS13B	"ORPHA:193,OMIM:216550"
55187	VPS13D	OMIM:607317
55275	VPS53	OMIM:615851
7443	VRK1	OMIM:607596
200403	VWA3B	OMIM:616948
10352	WARS2	OMIM:617710
23325	WASHC4	OMIM:615817
9897	WASHC5	"OMIM:220210,ORPHA:100989,OMIM:603563,ORPHA:7"
23001	WDFY3	OMIM:617520
51057	WDPCP	"OMIM:217085,ORPHA:110,ORPHA:1338,ORPHA:564"
55717	WDR11	"ORPHA:432,OMIM:146110,ORPHA:478,ORPHA:95496,OMIM:614858"
80232	WDR26	OMIM:617616
57539	WDR35	"ORPHA:93271,ORPHA:1515,OMIM:613610,OMIM:614091"
11152	WDR45	"OMIM:300894,ORPHA:329284"
56270	WDR45B	OMIM:617977
284403	WDR62	"OMIM:604317,ORPHA:2512"
84942	WDR73	"ORPHA:83472,ORPHA:2065,OMIM:251300"
124997	WDR81	"OMIM:610185,ORPHA:1766,OMIM:617967"
7466	WFS1	"ORPHA:411590,ORPHA:3463,OMIM:222300,OMIM:600965,OMIM:614296,OMIM:116400,OMIM:125853"
7467	WHCR	OMIM:194190
7474	WNT5A	"OMIM:180700,ORPHA:3107"
7490	WT1	"ORPHA:83469,OMIM:106210,ORPHA:347,ORPHA:893,ORPHA:220,OMIM:136680,ORPHA:251510,OMIM:194080,ORPHA:3097,ORPHA:654,OMIM:156240,OMIM:256370,ORPHA:242,OMIM:194070,OMIM:194072"
51741	WWOX	"ORPHA:99977,ORPHA:284282,OMIM:614322,OMIM:616211,OMIM:133239,ORPHA:442835,ORPHA:251510"
7507	XPA	"ORPHA:910,OMIM:278700"
7508	XPC	"OMIM:278720,ORPHA:910"
63929	XPNPEP3	OMIM:613159
7516	XRCC2	"ORPHA:84,ORPHA:399805,OMIM:617247"
7518	XRCC4	"ORPHA:99812,ORPHA:436182,OMIM:616541"
64131	XYLT1	"ORPHA:1425,OMIM:264800,OMIM:615777"
64132	XYLT2	"OMIM:264800,OMIM:605822,ORPHA:85194"
10413	YAP1	"OMIM:120433,ORPHA:1473"
51067	YARS2	"OMIM:613561,ORPHA:2598"
10730	YME1L1	OMIM:617302
7532	YWHAG	"OMIM:617665,ORPHA:442835"
7528	YY1	OMIM:617557
55249	YY1AP1	"ORPHA:79094,OMIM:602531"
7704	ZBTB16	OMIM:612447
10472	ZBTB18	"ORPHA:36367,OMIM:612337"
26137	ZBTB20	"ORPHA:3042,OMIM:259050"
9841	ZBTB24	"OMIM:614069,ORPHA:2268"
79882	ZC3H14	OMIM:617125
55906	ZC4H2	"OMIM:314580,ORPHA:3454"
158866	ZDHHC15	OMIM:300577
51114	ZDHHC9	"OMIM:300799,ORPHA:776"
9839	ZEB2	OMIM:235730
346171	ZFP57	"ORPHA:99886,OMIM:601410"
23503	ZFYVE26	"OMIM:270700,ORPHA:100996"
7545	ZIC1	"ORPHA:35099,ORPHA:63440,ORPHA:35098,OMIM:616602"
7546	ZIC2	"ORPHA:280200,OMIM:609637"
10269	ZMPSTE24	"OMIM:608612,ORPHA:90154,ORPHA:1662,ORPHA:740,OMIM:275210"
10771	ZMYND11	OMIM:616083
7707	ZNF148	OMIM:617260
79797	ZNF408	"OMIM:616468,OMIM:616469,ORPHA:791"
23090	ZNF423	"ORPHA:2318,OMIM:614844"
130557	ZNF513	"OMIM:613617,ORPHA:791"
7552	ZNF711	"ORPHA:777,OMIM:300803"
9326	ZNHIT3	"OMIM:260565,ORPHA:2836"
57688	ZSWIM6	"ORPHA:1827,OMIM:617865,OMIM:603671"